athsheoladh Aston Villa Football Club
Timon - Nathan Lane
Madeley , Market Drayton , Much Wenlock
Tháinig sé i gcomharbacht ar a athair Anraí III .
**Hugh Parkfield ( Mandy Patinkin )
Fisic - Wilhelm Wien
' '' An Iodáil '' '
Is toghcheantar parlaiminte suite i Poblacht na hÉireann é ' '' An Clár '' ' .
Cuireann sí fúithi i Brooklyn , Nua-Eabhrac .
Ospidéal Ollscoile an Choim do Mhná
Tá sé ina bhall de Fine Gael .
Tá sé mar chuid de Cumann Lúthchleas Gael na Breataine .
D'éag sé in Hollywood , California .
The Boomtown Rats ( SA )
Dáibhí Ó Laoghaire
' '' Tá sé suite i Contae Mhaigh Eo .
Caoimhín Ó hUiginn
Páirc an Chrócaigh , Baile Átha Cliath
athsheoladh Santiago Ramón y Cajal
=== Minas Gerais ( MG ) ===
' '' The Sun '' '
An Seanphobal , Sliabh gCua
Bá Dhún Mánais , Béarra , An Bhríd , An Bhograch , Bá Bheanntraí
Stephen Fry - ''Gordon Deitrich ''
' '' An Ghearmáin '' '
Dún Libhse Íochtarach , Dún Libhse Uachtarach
Coláiste na Dea Comhairle , Comhairle Chontae Loch Garman
An Tuirc ( 191 )
An Laitvia - ''Jāņi ''
Imríonn an foireann i Sraith na hÉireann .
CLG Dún Éideann Uí Chonghaile
Ba breitheamh í ar The Voice .
athsheoladh Michael Moynihan ( polaiteoir Corcaíoch )
**Hollis Hurlbut ( Donald Sutherland )
An Bhoirinn , Contae an Dúin
Hanworth , Hatton , Heston , Hounslow , Hyde Thuaidh
Tá sé ina bhall de Fianna Fáil .
Baile Átha Cliath Thoir Thuaidh
As Baile Átha Cliath dó .
Fisic - Edward Victor Appleton
' '' Tá sé suite i Muraisc , i Contae Mhaigh Eo .
Ba bhreitheamh é ar The X Factor .
' '' Sam Bailey '' '
Bárr Geadaidh , Baile a ' Chuilinn , Bad nam Manach
Anglesey Abbey , Audley End House , Abtheach Denny , Ard-Eaglais Ely , Ard-Eaglais Peterborough
World Wide Web Consortium
athsheoladh Lal Lal , Victoria
athsheoladh Droim Achadh an Fhuaráin
Ba bhreitheamh ar The Voice of Ireland '' í .
Tá sé suite i limistéar Chontae Dhún Laoghaire-Ráth an Dúin .
Robert F. Kennedy
Diarmuid Mac Murchadha Caomhánach , rí Éireannach
Kristján Eldjárn ( 1968-1980 )
**Dwight ( Steve Buscemi )
Putney , Putney Vale
Pádraig Ó Faoláin
Marie Antoinette na hOstaire
Imríonn sé faoi láthair le Tottenham .
Oideachas trí mheán na Breatnaise
''Shchelkunchik / Nutcracker '' - Pyotr Ilyich Tchaikovsky
Deir sí , áfach , go dtaitníonn cuid aistriúchán Paul Muldoon léi thar aistriúcháin aon duine eile , cé go bhfágann sé rian láidir ar a saothar .
Anraí Ó Riain
Dáil Ghiuthais , Dubhailigh , Dul , Dúnán
D’éirigh Joseph McCarthy ina cheannaire ar an maoithneachas fhrith-Chummanaí sin .
Hermione Granger '' - Emma Watson
Scoil chois claí
É ina chathaoirleach ar Scoil Samhraidh Willie Clancy , ar a bhfreastalaíonn breis is míle duine chuile bhliain .
athsheoladh Páirc Náisiúnta Bhaile Chruaich
D'imir sé roimhe sin le Shamrock Rovers i Sraith na hÉireann .
Coláiste na bhFiann
Coláiste Éamann Rís , Coláiste Chiaráin , Comhairle Chontae Chill Chainnigh
Chatteris , Cambridge , Cottenham
athsheoladh Cork City Football Club
St Helier , Summerstown
athsheoladh Roy J. Glauber
Páirc an Chrócaigh , Baile Átha Cliath
An Bholaiv ( 7,010,000 )
Waltham Abbey , Walton-on-the-Naze , Westcliff-on-Sea , Wickford , Witham , Wivenhoe , Woodham Ferrers Theas
Poblacht Dhaonlathach an Chongó
' '' An Spáinn '' '
Eaglais Mhachain , Eaglais a ' Bhaile Úir
''Dialann Deoraí '' ( réamhrá le Niall Ó Dónaill ) .
** RTÉ Radio 1 Extra
- ag cur Erdenet san áireamh
Máire Ní Áirne ( 2007–2008 )
Victoria na Ríochta Aontaithe
Seosamh Ó Déin
Tá siombal Éirinn ar fad déanta den leipreachán i Meiriceá Thuaidh .
Níl sé ag glacadh páirt san Olltoghchán 2016 .
Go luath sa bhliain seo ach gan an dáta cruinn – Roibeard II , Rí na nAlbanach ( b .
Eaglais Cheartchreidmheach na Bulgáire
Lindsay Lohan - féin
' '' Shayne Ward '' '
Is láithreoir nuachta le RTÉ é Aengus Mac Grianna .
Ligeadh don fhuíoll dul chun Baile Átha Cliath .
Siegfried & Roy
46 - Aiden McGeady
Tá sé nasctha le COBÁC .
athsheoladh The X Factor ( RA sraith 6 )
Dúirt sé go raibh an Taoiseach agus é feín ag iarraidh rud éigin practiciúil a dhéanamh agus gurbh é seo an chéad feachtas síochánaíochta daonnúil thar lear de chuid an tSeirbhís Chabhlaigh .
** Céad Leabhar na Macabaech
Stoirm thrópaiceach dhian , go minic millteach , a tharlaíonn mar chuilithe ag déanamh bíse mórthimpeall ar chóras brú ísil .
Holy Sepulchre , Holy Trinity Church
Ceol traidisiúnta na hÉireann
' '' Javier Pérez de Cuéllar '' '
Chaith sé tréimhse ag obair leis an gCoiste Téarmaíochta i mBaile Átha Cliath sula ndeachaigh sé go lánaimseartha leis an scríbhneoireacht .
Droichead Leifear , An Dún Riabhach
Tadhg Óg Ó Cianáin
Imríonn sé faoi láthair le Celtic .
Cuaig , Seosamh Ó Cuaig
athsheoladh Edward Plunkett , 18ú Barún Dhún Samhnaí
Sgonnsar , Stafain , Steinn , An Sruthan , Súladal , Sgéubost , Sligeachan
A cuid saotharlann suite i mBoulder , Colorado agus Washington , DC den chuid is mó .
athsheoladh Raidió Teilifís Éireann
Fisic - Hans Bethe
Tampere , An Fhionlainn
Páirc an Chrócaigh , Baile Átha Cliath
athsheoladh Clochán an Aifir
Dónal Óg Ó Cíosóg
Margrethe II na Danmhairge
Tosaíonn scannánú i 2013 déanach in Alberta , Ceanada ; An Íoslainn agus Cathair na hAingeal .
Tá cónaí uirthi anois san Eilvéis , mar a bhfuil sí pósta arís agus saorántacht an tír sin bainte amach aici .
Walsingham , Watton , Wells-next-the-Sea , Wroxham , Wymondham
Stadium of Light , Spanish City
Fisic - Nicolaas Bloembergen , Arthur Leonard Schawlow , Kai Siegbahn
Bunaíodh Cíoras Mór í .
Contae Dhún na nGall
' '' La Rioja '' '
Páirtí Poblachtach ( Stáit Aontaithe )
Is é KeyPoint Technologies atá i mbun a fhorbartha , comhlacht atá lonnaithe sa Ríocht Aontaithe .
Cabot , Clifton , Clifton Thoir , Cotham
`` Treehouse of Horror XXVI ''
Toirdhealbhach Ua Conchobhair
athsheoladh Rote Armee Fraktion
Tá eagraíocht óige bainteach leis an bpáirtí chomh maith , mar atá , Óige Ghlas .
athsheoladh 4 ( albam Beyoncé Knowles )
Ach , is mar gheall ar sin gur tháinig Lyndon B. Johnson chun smacht .
Seething Wells , Surbiton , Surbiton Park
' '' Tá sé suite in Iorras , in iarthuaisceart Chontae Mhuigh Eo .
Tá sí ina conaí in Oxford , Sasana agus chuaigh sí go Scoil Headington .
T. S. Eliot
Louis XIV na Fraince
' '' An Ísiltír '' '
Fear Flatha Ó Gnímh
Beannchar , Contae an Dúin
Tá trí bhrainse de chuid an mhúseaim i Baile Átha Cliath agus ceann amháin lonnaithe i Maigh Eo .
Tá sé ina bhall de Fhine Gael .
An Bhealarúis - Valeria Drobyshevskaya
athsheoladh Roibeard I , Rí na nAlbanach
Andrew Garfield - ''Anton ''
Tháinig sé i gcomharbacht ar a sheanathair , Éadbhard III .
Mainistir Tinteirn , Mainistir Dún Bróithe
Somerset House , The Serpentine , Speakers ' Corner , Strand
Nollaig Ó hÍcí
**Michael D'Amico ( Tress MacNeille )
Bhí sé le fáil in Ard-Oifig an Phoist , in éineacht le Pádraig Mac Piarais agus Tomás Ó Cléirigh .
Tadley , Totton and Eling
1997 - Béal Feirste
Is as Contae Luimnigh é .
athsheoladh Arm Saoirse Náisiúnta na hÉireann
Ceimic - Alan J. Heeger , Alan MacDiarmid , Hideki Shirakawa
Chaith sé an chuid is mó dá shaolré sna Stáit Aontaithe .
Chuaigh scéalta mar seo go mór i gcion ar Alastar Mór agus é óg .
Club Camanachd Oilthigh Obar Dheathain
athsheoladh Seoirse III na Breataine Móire agus na hÉireann
Is deirfiúr le Naisrín Elsafty í .
Tháinig a lán institiúidí cultúrtha móra uaidh ; Gailearaí Náisiúnta na hÉireann , Garraithe Náisiúnta na Lus , Ard-Mhúsaem na hÉireann agus Leabharlann Náisiúnta na hÉireann .
An t-Óban , Ormsaraidh , An Oitir
*22px Goiânia , An Bhrasaíl
athsheoladh Séamas VI , Albain agus Séamas I , Sasana agus Éire
Ba breitheamh í ar The Voice of Ireland .
An Fhrainc ( 2 )
Páirtí Aontachtach Daonlathach
David Lloyd George
=== Stáit Aontaithe Mheiriceá ===
*2004–2005 , Nollaig Ó Gadhra
Tá $ 3 billiún de mhaoin phearsanta aige dar le Forbes .
Glastonbury Tor , Glastonbury Abbey
athsheoladh Sporting Fingal Football Club
Bhí sí ag obair freisin le Clem Christesen ar Meanjin '' , iris liteartha .
Deilginis , Gráinseach Ghormáin , Dún Droma , Dún Laoghaire
Will Ferrell - Jacobim Mugatu
An Cliseam , Caolas Shódhaigh , Caolas na Hearadh
Tá ocht suiomh UNESCO ann chomh maith .
athsheoladh Baltimore , Maryland
Is as Gaillimh dó .
Lár Dubhithreach ( Центрально-Чернозёмный , ''Tsentralno-Chernozyomny '' )
Tomás ó Aquino
Bhí siad ina gcónaí i gcomharsanachtaí difriúla i Los Angeles agus a mháthair ag obair postanna éagsúla , ag déanamh iarrachta a thacaigh leo .
Hartcliffe , Henbury , Hengrove , Henleaze , Hillfields , Horfield
Tá sí ag críochantaíocht leis an Libia , An Éigipt , An Eiritré , An Aetóip , An tSúdáin Theas , Poblacht na hAfraice Láir agus le Sead .
athsheoladh Máire Mhic Giolla Íosa
Wagga Wagga , Wollongong
Tá sé ina bhall de Fine Gael .
''Saruman '' , draíodóir - Christopher Lee
Meastar go bhfuil an gigue Francach gaolmhar leis .
Thosaigh an clár ar RTÉ a hAon .
**Madam Wu ( Lucy Liu )
H. G. Wells
Erskine Childers , Fianna Fáil 51.9 % ;
' '' 420 '' ' – Poblacht na Seice
D'éirigh léí PhD a bhaint amach i Coláiste na hOllscoile , Corcaigh , nuair a scríobh sí tráchtas , ‘Saothrú an Léinn Ghaelaigh i gCo .
Seán Mac Giolla Bhríde
Saolaíodh i Cúige Uladh é .
Bhí ath-imirt de dhíth , cluiche ina d'imir leaid óg darbh ainm Éadbhard Ó Cathaoir a chéad chluiche ag an leibhéal seo .
Cille Bhraonaidh , Cill Fhinnean , Cille Bhríghde an Iar , Catagal , An Cladach , Cill Donnain , Cill Mhoire , An Coire
' '' Kian Egan '' '
An Astráil ( 150,000 )
Páirc an Chrócaigh , Baile Átha Cliath
Banc Shasana , Barbican Centre
Sabhal Mór Ostaig , Sníosort
CLG Tomás Dáibhís ( Baile Átha Cliath )
Tuaisceart na Réine agus an Viostfáil
athsheoladh The X Factor ( RA sraith 11 )
Chaill Joe Higgins an suíochán a bhí aige
Ba sa cheantar seo , leis , a bhí a lán de scéalta Walter Scott suite .
''Minerva McGonagall '' - Maggie Smith
Is cuid de Chontae Fhine Gall é freisin .
*1974–1979 , Pádraig Ó Snodaigh
Páirc Náisiúnta Sléibhte Chill Mhantáin
Is é tairiscint Einstein , ní hamháin go n-imíonn an t-am níos moille sa chóras inghluaiste , ach go moillítear gach próiseas sa chóras inghluaiste .
**Cooder ( Jim Varney ) agus Spud ( Tress MacNeille )
Ceantar Féinrialaitheach na Neinéitseach
Allt nam Breac , An t-Achadh Siar
Bá Dhún na nGall
Deilgne , Dún Ard , Dún Luáin , An Droichead Adhmaid
Coláiste Liam agus Mháire
Conspóideann sé an ''dearbaí síoraí '' leis an Dinamo Zagreb gach bhliain .
John Logie Baird ,
Massachusetts Institute of Technology
I Köln a fuair sé bás .
Peadar Ó Doirnín
' '' An Fhrainc '' '
Tá an chiúire ainmnithe as Marie Curie .
**Adriatica Viljohnson ( Tress MacNeille )
Dál gCais , Deoise Chill Dalua , Dabhach Bhríde
Constance Gore-Booth Markiewicz
Bhí siad ainmnithe in ómós do Cecil Rhodes .
' '' Tá sé suite i Contae Mhaigh Eo .
athsheoladh Micheál Ó Nuanáin
An Lár-Réigiún Thoir
Proinsias Mac Aodhagáin
' '' Tá sé suite san Muirthead , in iarthuaisceart Chontae Mhuigh Eo .
Carraig Álainn , Ceis Charraigín , Cionn Locha , An Chluain , Cluainín , Coillte Clochair , Cora Droma Rúisc , Corr an Tobair , An Chluain , Cill Srianáin , Cill Fhearga , Cill Tiobraid , Coillte Clochair , Cionn Locha
An Phortaingéil ( 1 )
Tá cáil ar Ollscoil Ghlaschú i go leor disciplíní acadúla .
Rinne sí staidéar le Sigmund Freud .
Ardscoil na mBraithre , Caisleán Ard Fhíonáin , Ard-Deoise Chaisil agus Imligh
' '' Cúige Laighean '' '
Páirc an Chrócaigh , Baile Átha Cliath
Rathad Iarainn nan Eilean
Cheap Pádraig Mac Piarais é ina Chaptaen Foirne , chun a bheith réidh nuair a bhrisfeadh an troid amach .
' '' Gána '' '
Tōson Shimazaki ( 1872–1943 )
Ardeaglais Salisbury , Avebury
Féatas a thugtar as sin amach air go dtí go mbeirtear é .
athsheoladh Ray Butler ( polaiteoir )
Coláiste San Aingeal , Sligeach
Séamas Ó hArgadáin
Thosaigh sí ag obair do na Daonlathaigh .
** Triúir ag Ollscoil na hÉireann .
An Sean-teach , Séamus Ó Grianna
Ceanannas ( don N52 )
Páirc an Chrócaigh , Baile Átha Cliath
athsheoladh An Mhí Thiar ( Dáilcheantar )
Tá sé ar BBC One .
1972-73 Atlético de Madrid
Páirc na gCeilteach , Printísigh Dhoire
athsheoladh Ollscoil na Banríona , Béal Feirste
Agus aoste léirmheasa le Seosamh Mac Grianna .
' '' Tá sé suite in Iorras , in iarthuaisceart Chontae Mhuigh Eo .
athsheoladh Nioclás II na Rúise
Criostóir Ó Rinn
An Chluaidh , Crois Tearain , Cnoc Ghille-Seoch , Cnoc Baile nan Albannach , Crois Naoimh Sheórsa
Moses Mabhida Stadium , Durban
Tobey Maguire - An Síobaire
athsheoladh An Clár ( Dáilcheantar )
' '' Keith Hanley '' 'Wayne BeattyDylan PowellRoisin CarlinJennifer MooreSophie Rischar
An Páirtí Daonlathach ( Éire )
' '' Stewie Griffin '' '
Tá stádas cosúil ag Oileáin Fharó freisin .
Fisic - Murray Gell-Mann
Allathasdal , Aird Mhór
' '' Cantabria '' '
' '' Tá sé suite i Cill Mheáin , i Contae Mhaigh Eo .
L. L. Zamenhof
Shanghai ( 上海市 )
Tá Carna anseo freisin .
Ba Máire I Shasana í a iníon .
Na Lochanna Móra
It 's Not me , It 's You ''
Innis Chonachain , Innis Mheárnaig , Innis , Inbhir Aora , Innis na Cailleach , Clár-Innis , Innis Fada , Innis Inbhir Dhughlais , Innis na Móna , Innis Mheadhran , Innis Taigh a ' Mhanaich
An Clochán ( Contae Chiarraí )
Tá sé ina bhall Fhianna Fáil .
As Contae Chiarraí dó .
Athsheoladh Colm Ó Maonlaí
athsheoladh Sligo Rovers Football Club
Hermione Granger '' - Emma Watson
Tá baint ag an gCumann le Cumann Lúthchleas Gael .
An Charraig Dhubh , Áth an Ghainimh , An Chéim
Art Ó Gríofa ( 1908-17 )
Ba dhlíodóir é a athair i gcathairstát Fhlórans .
athsheoladh Manchester United Football Club
Bigear , Baile an t-Saoir , Baile Udain
John Spillane , ceoltóir traidisiúnta
Bhí aithne phearsanta aige ar Shéamus Ó Grianna agus ar Sheosamh Mac Grianna .
' '' An Ísiltír '' '
Tháinig sé i gcomharbacht ar a mháthair , Victoria .
An Clochán ( Contae Uíbh Fhailí )
Chraol sé ar Fox .
ATHSHEOLADH Páirtí Sóisialta Daonlathach an Lucht Oibre
Imríodh an cluiche tosaigh agus an cluiche ceannais sa Stade de France .
Fisic - Philipp Eduard Anton Lenard
Orthu siud bhí Rónán Mac Aodha Bhuí , craoltóir
athsheoladh Eaglais Cheartchreidmheach na Fionlainne
Al Bida` ash Sharqiyah
Bhí an-spéis aige i saothar Walt Whitman agus scríobhadh sé chuige .
Institiúid Teicneolaíochta Phort Láirge
Béal Feirste Thiar ( toghlach )
Cúntóir le Raphael ina shaothar déanach .
Simón Bolívar - státaire
Is sampla é Colm Cúipéir .
Rinne sé staidéar in Ollscoil Harvard .
Celtic Football Club
Gerry Fitt ( 1973–1979 )
Hendon Thiar , The Hale , Hampstead Garden Suburb , Hendon , The Hyde , High Barnet
athsheoladh Cluichí Eorpacha 2015
Luaigh an tíreolaí seanársa Tolamaes an áit seo ina chuid scríbhinní mar ''Regia '' .
ATHSHEOLADH Páirtí Sóisialta Daonlathach an Lucht Oibre
Páirc an Chrócaigh , Baile Átha Cliath
athsheoladh Rochester , Nua-Eabhrac
athsheoladh Conrad Russell , 5ú hIarla Russell
athsheoladh The X Factor ( RA sraith 3 )
athsheoladh Poblacht na Seice
Sir Ian McKellen - Narrator
Anois , tá conai air i Cív .
An Bhanríon Áine Kendal
Is breitheamh í ar The Voice .
Biddulph , Burntwood , Burslem , Burton upon Trent
Imríonn sé faoi láthair do Newcastle United F.C . .
An Tuaisceart ( Северный , ''Severny '' )
' '' Joe Swanson '' '
athsheoladh Associazione Calcio Milan
Two Door Cinema Club
' '' Tá sé suite san Muirthead , in iarthuaisceart Chontae Mhuigh Eo .
Limistéar an euro
athsheoladh Longford Town Football Club
Ard-mhéara cáiliúil amháin a bhí ina chónaí ann ná Dónall Ó Conaill .
Peckwater Estate , Primrose Hill
athsheoladh Stáit Aontaithe Mheiriceá
athsheoladh Baile Átha Cliath Thiar-Meán ( Dáilcheantar )
Cuan an Bhriotáis , Carraig Mhór , Cnoc Dubh , Cnoc an Bhairr , Ceann Bhré , Ceann Chill Mhantáin , Céim na mBulóg , Clocharnach , Ceann an Bhealaigh , Carraig na Sliogán , Cruachán Uí Chinnsealaigh , Céidín , Cipiúr , Cnoc an Turlaigh , Cnoc an Bhairr
Beathaisnéis atá ann ar Fhíníneach a ghlac páirt i mbunú Chumann Lúthchleas Gael .
' '' Tá sé suite i Muraisc , i Contae Mhaigh Eo .
Darwin , Críoch an Tuaiscirt
Martin Luther King
Tá sí ina bhall de Fianna Fáil .
athsheoladh Éasc ( geolaíocht )
Tá sé ina léachtóir i gColáiste Oideachais Froebel , comhcholáiste de chuid Ollscoil na hÉireann , Má Nuad .
Isaac Butt , bunaitheoir Léig an Rialtais Dúchais
Tá sé suite in Recife .
Croome Court , British Camp
Cuireadh go Oileán Norfolk é ar feadh tamaill ach tugadh pardún dó agus d'fhill sé ar an fheirmeoireacht .
D'fhionn an baictéareolaí Francach Louis Pasteur an próiseas seo , agus ainmníodh as é .
Coritiba Foot Ball Club
athsheoladh Páirc an Bhreathnaigh
''Peeves '' - Rik Mayall
Is í Naomh Bríd éarlamh an cheantair .
Ionúiréis , riocht ina dtarlaíonn folmhú ainneonach an lamhnáin .
Tá sé suite i Contae Mhaigh Eo .
Tá an chathair suite in iarthar Hokkaido .
Droichead na Bandan , Dúnmaonmhuí , Dúglas , Dún na Séad , Durrás , Dhá Dhroim , Dún ar Aill , Droim Dhá Liag , Draighneach , Druipseach , Drom Atháin , Dun Eala , Dun Darú , Dún Guairne , Droichead an Mhionnáin
athsheoladh Leo Hendrik Baekeland
athsheoladh Tomás Mac Curtáin
Yasunari Kawabata ( 1899–1972 )
Is é Comhairle Chontae Chill Dara an t-údarás áitiúil .
Liam Tomás Mac Cosgair
George Johnstone Stoney
Brian Mac Giolla Meidhre ( 1745-1805 ) , file
Páirtí Sóisialach ( Éire )
athsheoladh Ollscoil na hÉireann , Gaillimh
Is é Coláiste na Tríonóide , Baile Átha Cliath an páirtnéir acadúil atá aige .
Achair , Ard Cath , An Aitinn Bhuí
Ainmnithe as Luigi Galvani , a shaothraigh an méadar ar dtús .
Cros-síolraíodh an bunphór gearrchosach leis an bhfuipéad chun an fhoirm nua-aoiseach le cosa níos faide a tháirgeadh .
Is ann atá príomhoifig Údarás na Gaeltachta .
Universidade Federal de Minas Gerais
Níl sé ag glacadh páirt san Olltoghchán 2016 .
Ceimic - Manfred Eigen , Ronald George Wreyford Norrish , George Porter
Forógra Neamhspleáchais na hÉireann
Tá sé ina bhall de Fine Gael .
athsheoladh Baile Átha Cliath Thiar-Meán ( Dáilcheantar )
**Lean an chorraíl ar aghaidh sa Phalaistín mar gheall ar an ionsaí talún i nGaza .
Déaglán Ó Súilleabháin
Imríonn sé mar chúl báire le F.C. Barcelona .
athsheoladh CLG Chontae Chorcaí
Meathas Troim , Mullach na Leachta , Maigh Dumha
Dúrlas Éile , Dolla , Drom , Drom Inbhir , Dún Eochaille , Dubhaille , Dún Droma
athsheoladh An Seisceann , Contae Mhuineacháin
Mícheál Mac Síthigh
An tSeapáin ( 2 )
Seán Ó Sé , Eoghan Rua Ó Súilleabháin , Peig Sayers , Muiris Ó Súilleabháin , Páidí Ó Sé , Pádraig Ó Spealáin
Tá sé ar BBC One .
Brian Ó Comhain
athsheoladh An Astráil Theas
Is í Potenza príomhchathair an réigiúin .
Tiger Woods ( 3 )
Is taispeáint Chríost i nglóir lonrach go triúr a deisceabail é ' '' Claochlú an Tiarna '' ' .
An Ghearmáin ( 410,000 )
An Astráil ( 57 )
44 - Stephen McManus
Pádraic Ó Conaire
''Galadriel '' - Cate Blanchett
Bhí saol s'aicise an uair sin léirithe mar théamaí in a cuid dánta , ina measc 'Camanachd Ghlaschu ' agus 'Deoch-shlàinte Gàidheil Ghrianaig ' .
Cathal Buí Mac Giolla Ghunna
Loch Garman ( don N25 )
Sligo Rovers Football Club
The Voice ( SAM )
athsheoladh The X Factor ( RA sraith 8 )
As Contae Chiarraí dó .
BBC Two ( 1967- )
Tá Droichead Londan críochnaithe
Tháinig deartháir níos óige leis , Anraí I , i gcomharbas air .
' '' The Joshua Tree '' ' ''
athsheoladh Raidió Teilifís Éireann
Tháinig a mhac Éadbhard II i gcomharbacht air .
C. S. Lewis , Scríbhneoir
Gearóid Mac Ádhaimh ( 1983-anois )
Mullach Coire a ' Chuir
Gach amhrán le Lennon / McCartney , ach amháin iad le nóta .
Eisean a chum an téarma ''Seidenstrasse '' ( Bóthar an tSíoda ) .
' '' Glenn Quagmire '' '
Iar-uachtarán ar Chonradh na Gaeilge .
athsheoladh Séamas VI , Albain agus Séamas I , Sasana agus Éire
Langaim , Loch Mhabain , Logarbaidh , Lios Uillt , Loch Ríoghaine
athsheoladh N2 ( Éire )
Bhí siad ar tí an tír a fhágaíl ar a gcéad camchuairt sa Stáit Aontaithe Mheiriceá nuair a chuir an t-amhránaí corrach Ian Curtis lámh ina bhás féin .
An Dóinn , Dá Chích Anann , Doire Mór , Dún Lóich
athsheoladh Leabharlann Náisiúnta Iosrael
D'imir sé le Reading F.C . ar feadh ceithre bliana .
Tettenhall , Tettenhall Wood , The Lunt
athsheoladh Cainteanna um Theorannú Arm Straitéiseach
Tadhg Óg Ó Cianáin
Tháinig sé sa tríú háit ar an seachtú sraith de The X Factor '' sa bhliain 2010 ina bhall den ghrúpa One Direction .
' '' Tá sé suite i Cill Mheáin , i Contae Mhaigh Eo .
Toirealach Luineach Ó Néill
Is amhránaí í ' '' Dev '' ' as California , Stáit Aontaithe Mheiriceá .
' '' Tá sé suite in Iorras , in iarthuaisceart Chontae Mhuigh Eo .
An Sruthán , Sráid na nAlbanach
Jilin ( 吉林 )
Dónal Óg Ó Cíosóg
Watchet , Wellington , Wincanton , Weston-super-Mare
athsheoladh Unione Calcio Sampdoria
Knighton , Knighton Thiar
Tá a deirfiúr Brigitta ina haisteoir chomh maith .
Is as Contae Luimnigh é .
Páirc an Chrócaigh , Baile Átha Cliath
Sa Chróit féin , áfach , tá an teanga chaighdeánaithe bunaithe ar an gcanúint ''Štokavski '' .
Chraol sé ar Fox .
Charnwood , Clarendon Park , Coleman
Tá sé curtha i Reilig Ghlas Naíon i Baile Átha Cliath .
Harry Potter ( carachtar ) , an charachtar féin
Páirc an Chrócaigh , Baile Átha Cliath
athsheoladh Christopher Latham Sholes
Talla Consairt Ríoghal Ghlaschú , Taigh-tasgaidh Taobh na h-Aibhne , Talla Chaol-Aibhne
D'fhill sí ar Ollscoil na hÉireann , Baile Átha Cliath , áit ar bhain sí céim amach sa dlí .
Tá aithne air mar gheall ar a chuid leabhar beathaisnéise ar Federico García Lorca agus Salvador Dalí .
athsheoladh Niels Kaj Jerne
Nuair a bhí sé ar scoil , thosaigh sé ag brionglóidigh faoi scríbhneoireacht , agus dúirt sé le cara leis gur theastaigh uaidh `` bheith ina fhile , cosúil le Runeberg '' .
Cloch Londain , Cearnóg Paternoster
ATHSHEOLADH Dara Ó Briain
Ainmnithe as Robert Adams is William Stokes .
Graham Mag Oireachtaigh
Sléibhte Mhám Toirc , Sliabh Eachtaí , An tSionainn , An tSuca
Is é Brendan Gleeson a bheidh ag glacadh pháirt an mheirligh .
** Ollscoil na hÉireann , Má Nuad
Fear Flatha Ó Gnímh
Dónall Ó Conaill , polaiteoir
''Néal Maidine agus Tine Oíche '' , Breandán Ó Doibhlin
ITV HD ( 2006- )
Fearghus Mac Róich
Sadhbh Ní Bhruinneallaigh ar an BBC
Dún Phárlain Banrighinn Mairead
Paolo Maldini ( 1997-2009 )
Fuar Tholl , Fionn Bheinn , Fionne Bheinn
San iarthar tá teorainn aici le Boyacá .
' '' Meg Griffin '' '
** Curzio Malaparte , scríbhneoir Iodáil ( b .
Srath Chura , An Socach , An t-Srón , Sgalasaig , Sgairinis
Abhainn Thuaidh , Abhainn Leitheinn
' '' Tá sé suite in Iorras , in iarthuaisceart Chontae Mhuigh Eo .
An Eilreig , Eicht , Eaglais Chiric
An Asarbaiseáin - ''Lá an Bhunreachta ''
An Ghearmáin ( 410,000 )
Is é ' '' ''Confident '' ' '' an chúigiú albam ón amhránaí Demi Lovato .
Sa chéad ghrúpa tá an-chuid bealaí inar féidir an fhairsinge le fótagrafú a fhorleathnú amach , le hamhairc atá péinteáilte ar ghloine nó mionláithreáin atá tógtha i bpeirspictíocht .
athsheoladh Teach Dhoire Mhóir
An Ros , Co. Shligigh
Scéal as an ngnáth ab ea iad Búistéirí na Seanchille .
Bíonn laithreacht ag an eagraíocht freisin ar ardáin eile , mar shampla ar Twitter agus ar Facebook .
An Uaimh ( roimhe seo Baile Átha Troim ) .
athsheoladh Amsterdamsche Football Club Ajax
athsheoladh Jean Julius Christian Sibelius
Brochfael ap Elisedd ( 755 ? –773 )
Ba leanúnaí le Sócraitéas é agus máistir Arastotail ina dhiaidh sin .
Brian Seosamh Ó Luineacháin
Baile Eilidh Meadhain , Baile Eilidh Uachdar
The Voice of Ireland ''
Tá cónaí air i nDroichead Átha faoi láthair .
athsheoladh London Borough of Wandsworth
Tá an chuid is mó den daonra de bhunús Spáinneach nó Iodáileach .
' '' Steve Brookstein '' '
Is ball den Pháirtí Poblachtach é .
I measc scríbhneoir bhí Cheryl Cain , Ben Edlund , Jane Espenson , Drew Z. Greenberg , Brett Matthews agus José Molina .
Seán Mac Brádaigh
' '' 39 '' ' - An Iodáil
Imríonn siad i Páirc Richmond .
Leek , Lichfield , Longton
Tá sé ina bhall de Pháirtí an Lucht Oibre .
athsheoladh Stailc agus Frithdhúnadh 1913 ( Baile Átha Cliath )
Dalston , De Beauvoir Town
An Charraig Dhubh
Risteárd de Clare , Dara hIarla Phembróic ( Strongbow )
athsheoladh Fudbalski klub Crvena zvezda
Charles J. Kickham
Stadio Olimpico ( Torino )
Alan Kelly ( 2014– )
' '' Tá sé suite i Contae Mhaigh Eo .
Ollscoil na hÉireann , Gaillimh , Ospidéil na hOllscoile , Gaillimh
Tháinig a mhac , Éadbhard V , i gcomharbacht air .
athsheoladh Arnulf de Carinthia
Dail Healabhaig , Dún Beithe , Dúnaid , An Dail Shuas
athsheoladh The X Factor ( RA sraith 11 )
`` An t-aon ginias amháin '' ab ea é , dar le canadóir Frank Sinatra .
athsheoladh Only Fools and Horses
Kate Winslet - Iris Simpkins
athsheoladh The X Factor ( RA sraith 9 )
Fisic - Johannes Diderik van der Waals
Ceanada ( 272,000 )
Fuair sé bás i Washington , D.C . .
Vincent van Gogh
Athsheoladh Ciarán Ó Faoláin .
athsheoladh Cnagadh ( inneall )
Bunaíodh Ollscoil na hÉireann , Baile Átha Cliath
Eachroim , Contae Chill Mhantáin
An Fhionlainn ( 37 )
' '' 16-24í '' ' '' Shayne Ward '' '
Ba bhall den Pháirtí Poblachtach é .
Bhí Cathal Ó Sándair , scríbhneoir don aos óg , páirteach ann freisin .
Leeds United Association Football Club
athsheoladh Éanna Ó Coinnigh
''Mr Ollivander '' - John Hurt
Is as Contae Luimnigh é .
athsheoladh Otto von Habsburg
Áird Tóirinis , Acadamaidh Ríoghail Inbhir Nis , Árd Sgoil Bhaile Theárlaich , Acadamaidh Allt a ' Mhuilinn , Acadamaidh Alanais , Acadamaidh Inbhir Pheofharain , Acadamaidh Dhornaich , Árd-Sgoil Ghearrloch , Árd-sgoil a ' Phluic , Árd-sgoil Phort Rígh , Árd-sgoil Ghoillspidh , Árd Sgoil Cheann Loch Biorbhaidh , Comann Camanachd Áird nam Murchan , Comann Camanachd A ' Ghearasdain , Comann Camanachd Loch Abair , Comann Camanachd Lobhait
De réir daonáireamh S.A.M .
Is ball Fhine Gael é .
An Aithin ( 1 )
Baile an Chillín
athsheoladh Gruffudd ap Madog
B'é an chéad duine uasal a bhaistigh Naomh Pádraig .
''Severus Snape '' - Alan Rickman
Curitiba , An Bhrasaíl .
An Cunta Pluincéad
' '' Tá sé suite in Iorrais , in iarthuaisceart Chontae Mhuigh Eo .
Rinne Rialtas na Sé gContaetha iarracht an ghluaiseacht cearta sibhialta a chur faoi chois le lámh láidir , ach d'eascair feachtas fuilteach as an iarracht sin .
Páirc an Chrócaigh , Baile Átha Cliath
New Charlton , New Eltham
Griffin Park , Gunnersbury Park
Malmesbury , Marlborough , Melksham , Mere
Noone , Val .
Máirtín Ó Cadhain ( 1969-70 )
' '' Peter Griffin '' '
**Belle ( Tress MacNeille )
St John 's Chapel
Ron Weasley '' - Rupert Grint
Dail bho Thuath , Dail-bho-Dheas
W. B. Yeats
J. B. Smoove
Joseph Black , ( 1728-1799 ) , Ceimiceoir
Buenos Aires , An Airgintín
athsheoladh Dómhnall II na h-Alban
Is í an t '' 'Sanscrait '' ' ( संस्कृत ) teanga léannta na hIndia .
athsheoladh Reial Club Deportiu Espanyol de Barcelona
Is é Arvaikheer an phríomhchathair .
D. S. Ó Ciara
Aonach Meadhoin , Aonach Mór , Aonach Beag
De réir daonáireamh S.A.M .
Éamann Ó Donnchaidh , iriseoir
Is ball den Pháirtí Daonlathach é .
Páirtí Poblachtach ( Stáit Aontaithe )
Gustave Flaubert - scríbhneoir
Scarcroft , Scott Hall , Shadwell , Sheepscar , Stanningley , Stourton , Sturton Grange , Swarcliffe , Swillington , Swinnow
Fásann i Meicsiceo den chuid is mó .
athsheoladh The X Factor
Saolaíodh i Páras é ach chaith sé seal dá óige i Peiriú .
' '' Buachaillí '' ' '' Matt Cardle '' '
Áird Tunna , Aiseag Ulbha
D'aimsigh Gary Twigg an chéad chúl sa staid nua .
' '' Kofi Annan '' '
Is é ' '' Xtra-vision '' ' an sreangshiopa is mó in Éirinn a díolainn agus ligeann físeán ar cíos .
Sa bhliain chéanna deineadh stiúrthóir cúnta de i Raidió Éireann .
Mac Grianna agus Ó Grianna
athsheoladh Blàr Allt a ' Bhonnaich
Páirc an Chrócaigh , Baile Átha Cliath
' '' Tá sé suite i Muraisc , i Contae Mhaigh Eo .
Cormac mac Airt
Go gairid roimh a bhás , phós sé Eva Braun , a bhí mar leannán aige le fada .
athsheoladh The X Factor ( RA sraith 6 )
CLG Chontae Lú
athsheoladh Bolinda , Victoria
Ceatharlach ( don N9 )
athsheoladh Cosslett Ó Cuinn
Nuair a bhí sé bogtha go dtí an ardchathair , liostáil sé le Bráithreachas na Poblachta agus bhí baint aige le Mícheál Ó Cíosóig agus an Cumann Lúthchleas Gael ag teacht ar an bhfód .
Bhí sé in éineacht leis an stiúrthóir Danny Boyle arís sa scannán sin .
Bardasacht i gcúige Albacete , Castile-La Mancha , sa Spáinn is ea ' '' Molinicos '' ' .
Ciallaíonn an t-ainm ''slí chaol '' ( الزنقة az-zanqa ) san Araibis .
The Mighty Boosh
Corneli]] '' An Bhreatain Bheag
I mBergen , san Iorua a fuair sé bás .
An Cumann Gaelach ( Ollscoil na Banríona )
Béal Átha na Sluaighe ''
William J. Clinton
Tá sé ina bhall de Fianna Fáil .
Ceimic - Robert Sanderson Mulliken
De réir daonáireamh S.A.M .
''Fiche Bliain ag Fás '' , Muiris Ó Súilleabháin
athsheoladh Naomh Uinseann de Pól
athsheoladh Gruffudd ap Madog
Tháinig Áine i gcomharbacht air .
Bhí lá Pheadair Mhóir ag gealadh faoin am seo .
''Legolas '' - Orlando Bloom
An tSeapáin - ''Tōji ''
Contae Thír Eoghain
Ghlac Gina Torres ról Zoey .
Chaith sé seal mar thiománaí ag an Aire Caoimhín Ó hUiginn .
Tadcaster , Thirsk , Thornaby-on-Tees
Eilean a ' Chléirich
Imreofar an cluiche oscailte agus an cluiche ceannais sa Stade de France .
Sean-nós ( amhránaíocht )
Áth an Ghainimh ,
As Contae Chiarraí dó .
Tadhg Óg Ó Cianáin
Glactar leis gurbh é ''Niamh '' leis an Athair Peadar Ua Laoghaire an chéad úrscéal stairiúil sa teanga .
Craobh Sinsear Peile na hÉireann 2006
Maigh Nuad , Mainistir Eimhín , Maen Colmcille
Gerard Manley Hopkins - file .
Southfields , Streatham Park
Clach Glas , An Chuith-raing
J. J. Ó Dúláinne
athsheoladh The X Factor ( RA sraith 11 )
Van Morrison , Ceoltóir agus amhránaí
Eilean Chathair Amain , Eilean Mháigh
Tháinig a chol ceathrair Stiofán i gcomharbas air .
Ceann an Droichid ( don A2 )
athsheoladh Football Club Internazionale Milano
An Liobáin ( 2,300 )
athsheoladh The X Factor ( RA sraith 8 )
Ba ann a chaith Seán Ó Riada cuid mhaith dá shaol .
Béal an Átha , Contae Luimnigh
Liam Mac Piarais
Deirfiúr Marge atá inti .
Tháinig Stereo Kicks sa chúigiú áit ar an t-aonú srauth déag The X Factor '' sa bhliain 2014 .
Contae Dhún na nGall
Páirc an Chrócaigh , Baile Átha Cliath
An Taigh Sean , Toll na Croise
As Contae Chiarraí dó .
University of Texas Southwestern Medical Center
''Legolas '' , ealbh - Orlando Bloom
ITV2 ( 1998- )
An Fhrainc ( 305 )
Port a ' Mhadaidh , Port MhicEamailinn
Caisteal Dhún Éideann , Comhairle Choitcheann Teagaisg na h-Alba
D'oibrigh sé sa Bhreatain ar feadh a shaolré .
Fisic - Lev Davidovich Landau
Tá sé ina bhall de Fianna Fáil .
Cumann an Aifrinn Laidinigh
Noam Chomsky ( *1928 )
Séamas VI , Albain agus Séamas I , Sasana agus Éire
Tá an chathair suite in East Riding of Yorkshire i Sasana .
athsheoladh Shamrock Rovers Football Club
Críoch an Tuaiscirt
Aodhán Ó Fógartaigh
Gabhrán , Gabhalmhaigh , Gráig na Manach
Músaem Yorkshire , Middlethorpe Hall
Tá sé guthaithe ag Trey Parker .
Tobar Adaidh , Tórr Fhitheachan
athsheoladh Kate Middleton , Bandiúc Cambridge
Hubei ( 湖北 )
Neipeal ( 1 )
Príomh-Aire na hAstráile
Bagdad , An Iaráic .
An tAontas Eorpach
Tá sé ina bhall de Fine Gael .
athsheoladh Rory Gallagher ( albam )
West Ham , Woolwich Thuaidh
Anraí Joy Mac Reachtain
Warrington , Westminster , Widnes , Wilmslow , Winsford
Chichester , Crawley , Chichester
athsheoladh Eilean nam Beathach
Súil Londan , Uisceadán Londain , Sts Simon and Jude Catholic Church , Southbank Centre
athsheoladh Futbol Club Barcelona 2005-2006
In eagar ag Pádraig Ó Fiannachta .
Bhuaigh Bobby Aylward an suíochán atá ann .
Jagadguru Kripaluji Maharaj
an ''Koiné '' nó an chanúint mheasctha a tháinig in úsáid i ndiaidh ghabháltaisí Alastair Mhóir
Fisic - James Watson Cronin , Val Logsdon Fitch
Seán Ó Céirín
Tháinig Anraí IV , i gcomharbacht air siúd .
athsheoladh Comhairle na Calcadóine
Seán MacBride , Aire Gnóthaí Eachtracha
Fisic - Gerardus 't Hooft , Martinus Veltman
David Lloyd George
Chongqing ( 重庆市 )
Ráth a ' Ghoirtein , Rinn Dealgros
Stáit Aontaithe Mheiriceá ( 41,000,000 )
Darwin , Críoch an Tuaiscirt
Mícheál Ó Duibhir
Lár na Tíre ( Sasana )
athsheoladh Derry City Football Club
Tá sí ina ball de Fianna Fáil .
' '' No Line on the Horizon '' ' ''
Is é Louis Walsh ( iar-bhainisteoir Boyzone ) a mbainisteoir .
Is smuigléir agus tiarna beag ar Phersephone é Badger ( Mark Sheppard ) .
D'oibrigh sé le Foinse , Raidió na Gaeltachta , RTÉ agus Nuacht TG4 ar feadh deich mbliana .
Séamus Ó Scannláin
athsheoladh Iarsmalann Thíortha an Bhíobla
Daon-Phoblacht na Síne ( PRC )
Is í Bari príomhchathair an réigiúin .
Is ball den Pháirtí Daonlathach é .
athsheoladh Éamon de Valera
Is ball Eaglais na hÉireann é agus is fear aerach é .
Fisic - Carlo Rubbia , Simon van der Meer
Aung San Suu Kyi
athsheoladh Ivor Mac Alaigh
Panama ( 3,108,000 )
Ronald W. Reagan
Cillín Chaoimhín i Contae Chill Mhantáin
Ollscoil na hÉireann , Má Nuad
Risteard Mac An Earraigh , Tánaiste , Aire Gnóthaí Eachtracha
Roinnt áiteanna i gContae an Chláir
Tá sí suite i Meiriceá Theas .
D'oibrigh sé sna Stáit Aontaithe ar struchtúir ilchineálacha leathsheoltóra .
Shipston-on-Stour , Southam , Stratford-upon-Avon
Niall Ó Cárthaigh
athsheoladh Baile na Croise ( Contae Dhoire )
ATHSHEOLADH Seán T. Ó Ceallaigh
The Voice of Ireland ''
D'áitigh dlúthchara dá chuid Máirtín Ó Cadhain air cúl a thabhairt do an hÓglaigh le luí isteach i gceart ar an scríbhneoireacht .
Ollscoil na Banríona , Béal Feirste
Ludwig II na Baváire
Cónaíonn siad i Meiriceá Theas , i Paragua sa chuid is mó .
John Spillane , ceoltóir traidisiúnta
' '' An Bhrasaíl '' '
Na Seots , Na Steaps
20px]] Poblacht na hAfraice Láir
Geárr Lagaidh , Garbh Mhonadh , Gartaidh
Deartháir Phádraig ( An Seabhac ) Uí Shiochfhradha a bhí ann .
Is í Pori príomhchathair an réigiúin .
Mása Ríona Íochtarach , Mása Ríona Uachtarach
Mícheál Ó Máirtín ( 2011–anois )
C. S. Lewis
athsheoladh Dúlais ( Oileán Mhanann )
Athsheoladh Colm Ó Maonlaí
Beinn a ' Chaorainn , Beinn a ' Bhúird , Beinn Bhrotain , Beinn Athfhinn , Beinn na Cíche , Am Bráigh Riabhach , Beinn Chíochan
athsheoladh Druim an Tí
athsheoladh Bonita Springs , Florida
athsheoladh Dianscaoileadh ( lobhadh )
Páirc an Chrócaigh , Baile Átha Cliath
athsheoladh Tomás Mac Gearailt
Comhairle Shiorrachd Rinn Friú
Peter Falk mar ''DonIra Feinberg ''
Loftus Versfeld Stadium , Pretoria
Sraithchomórtas Iomána Náisiúnta
Eilís II na Ríochta Aontaithe
D’fhreastail sé ar an gColáiste Ollscoile , Baile Átha Cliath agus Choláiste na Tríonóide , Baile Átha Cliath chun tuilleadh staidéir a dhéanamh .
Ard-Easpag Bhaile Átha Cliath ( roimh an Reifirméisin )
' '' Cleveland Brown , Jr . '' '
Woodford Theas , Wanstead , Woodford , Woodford Bridge , Woodford Green
Ceol traidisiúnta na hÉireann
athsheoladh Associazione Sportiva Roma
Ba chara é le Friedrich Nietzsche nuair a bhí sé óg .
Liam Ó Fionnalaigh
Seirbhís Phóilíneachta Thuaisceart Éireann
Tá sé ina bhall de Fianna Fáil .
Chuaigh sé mar inimirceach chun Ceanada dhá scór bliain roimh a bhás .
Fionne Bheinn , An Fharaird
Sirriam ficseanúil is ea ' '' Réamonn Óg '' ' a tháinig as peann an úrscéalaí Cathal Ó Sándair .
Is ball den Aontas Eorpach í .
Is leathchúlaí é. Imríonn sé lena chlub Na Piarsaigh freisin .
Méadaíodh an tArm go mór .
athsheoladh Micheál Ó Síothcháin
Ba bhall de Chonradh na Gaeilge é , agus chaith sé seal mar rúnaí air .
' '' Tá sé suite in Iorras , in iarthuaisceart Chontae Mhuigh Eo .
Tá an fhantaisíocht agus an aigne thriallach fite fuaite freisin i saothar Mhíchíl Uí Chonghaile , scríbhneoir agus foilsitheoir .
Chraol sé ar Fox .
Nuair a bhí a chuid scoláireacht déanta aige , thóg sé post mar mhúinteoir agus chaith sé seal ag obair i Stáit Aontaithe Mheiriceá .
athsheoladh Ollscoil Londan Thoir
Mariner a Ceathair , a Sé , a Seacht , agus a Naoi
athsheoladh Unione Calcio Sampdoria
''Gandalf '' , draíodóir - Ian McKellen
Seachtain na Gaeilge
Tá sí ina bhall de Fianna Fáil .
Corca Dhuibhne , Contae Chiarraí go háirithe , in aice le Daingean Uí Chúis
athsheoladh Xena : Warrior Princess
Aodh Rua Ó Dónaill
Naomh Séamus , mac Zeibidé
Inbhir Chéitinn , Inbhir Líobhann
Risteard an Iarainn
Contae an Dúin
Port Mearnóg ( ''Portmarnock '' )
** Chungu ( Kevin Schon )
athsheoladh Caisleán Bhaile an Dairdisigh
athsheoladh Tottenham Hotspur Football Club
Fuair an Piarsach cabhair óna dheartháir Liam Mac Piarais , agus b'é Tomás Mac Donnchadha a bhí ina Leas-Phríomhoide ar an scoil .
Ina dhiaidh sin bhí sé ag múineadh meánscoile i nGaeltacht na Rinne .
An Phortaingéil agus An Ghearmáin
Fland Mac Máel Sechnaill ( básaithe 916 )
An Eilvéis ( 130 )
athsheoladh Foireann rugbaí náisiúnta na hAlban
Bhíodh sí ina ball den ghrúpa ABBA .
Bhain a chuid aisteoireachta go mór le Ré Órga Hollywood .
West Bromwich Albion Football Club
Is í Gráinne Seoige a deirfiúir .
athsheoladh Portobello ( Baile Átha Cliath )
athsheoladh Club Deportivo Castellón
Cumann na nÉireannach Aontaithe
Brian Ó Comhain ( 2008–2011 )
Raunds , Rothwell , Rushden
Conchur Ó Colbaird
Is é Setanta Sports an urraitheoir dó .
Tá sé ina bhall de Fhianna Fáil .
An Ísiltír ( 0 )
athsheoladh San Proinsias Assisi
Tá a cheanncheathrú suite i Hemel Hempstead , Hertfordshire .
Is dócha gurbh é Khrushchev a shocraigh an chéim suas seo dó .
Ba as Gaillimh iad a tuismitheoirí .
Southfields , Spinney Hills , St Matthew 's , Stoneygate
Faoin am seo a tharraing Adolf Hitler an chéad challán .
athsheoladh Fudbalski klub Crvena zvezda
athsheoladh Diarmaid Ó Donnabháin Rosa
athsheoladh Pádraig Ua Duinnín
Dún na nGall ( le seachbhóthar , don N56 )
Tig an locht a chur ar scannán Disney a cheap radhcanna a thug seo le fios .
athsheoladh Dealbh na Saoirse
athsheoladh Mark Wilson ( imreoir )
Tá sé guthaithe ag Joe Mantegna .
athsheoladh Diúc na hAcatáine
Ba breitheamh í ar The X Factor .
Eaglais Cill an Rubha
Cosaint Shibhialta na hÉireann
1969-70 Atlético de Madrid
athsheoladh Olltoghchán na hÉireann , 2016
1950-51 Atlético de Madrid
''Dunboyne '' an chéad ainm a fuair an long , nuair a tógadh í i mBaile Átha Cliath .
Caiseal , Contae Thiobraid Árann ( agus Carraig Phádraig )
Sligeach ( don N4 agus N15 )
Focal Araibise é ''al-islam '' ( الإسلام ) .
' '' Charles Flanagan '' '
Inis Córthaidh ( don N30 )
athsheoladh Hibernian Football Club
Mailí ( 1 )
D'imir sé le Arsenal roimhe sin .
Cuid de thréimhse nó de thimthriall an chroí é sin .
Tá sé ina bhall de Fianna Fáil .
Free State Stadium , Bloemfontein
Thug Seán F. Lemass an `` fíor-fhreasúra '' orthu .
' '' Tá sé suite in Iorras , in iarthuaisceart Chontae Mhuigh Eo .
' '' Tá sé suite i Cill Mheáin , i Contae Mhaigh Eo .
Plandáiltear go minic mar cheanglóir láibe é , ach ag leathadh amach go tapa sa nádúr sa Bhreatain .
Iníon le Peadar Mór a bhí inti .
Trasnaíonn an gcúrsa trí an Teapraomm mar an A2 .
22px]] Poblacht Dhaonlathach an Chongó
' '' Tá sé suite in Iorras , in iarthuaisceart Chontae Mhuigh Eo .
Chris Miller - Kowalski
Inniu , tá an eipidéim seo ag teacht go Ohio .
Tá sí ina ball de Fine Gael .
San am sin a chum Brian Merriman a dhán fada ''Cúirt an Mheán Oíche '' , ar scigaithris é ar an aisling go bunúsach .
athsheoladh The X Factor ( RA sraith 9 )
As Lothra i Contae Thiobraid Árann dó .
Conchúr Mac Neasa
Cháiligh sé mar mhúinteoir i Coláiste Ollscoile , Baile Átha Cliath .
Tá sí ina ball de Fine Gael .
de Bhaldraithe , Tomás .
Páirc an Chrócaigh , Baile Átha Cliath
Tháinig Anraí VI Shasana i gcoróin .
An Tuirc - Lá cuimhneacháin do Kemal Atatürk
Páirc an Chrócaigh , Baile Átha Cliath
Tá sí suite i lár oirthear Honshu .
Caisleán Lowther , Caisleán Brougham , Caisleán Píoraid
Cuirtear tréithe áirithe dá chóras i bhfeidhm sa chlairnéid freisin .
Páirc an Chrócaigh , Baile Átha Cliath
Tháinig Leo XIII i gcomharbacht air .
Athair Bernardo O'Higgins a bhí ann .
An Chianoirthear ( Дальневосточный , ''Dalnevostochny '' )
Is stáitseirbhíseach é do an rialtas i Sasana .
Futbol'nyj klub Kuban '
Heath Ledger - ''Tony ''
Béal an Átha ( don N26 )
D'admhaigh sé le déanaí ar The Podge and Rodge Show go bhfuil 'Shane ' mar chéadainm bunaidh aige .
Moltar freisin go raibh Cú Chulainn ina chónaí sa cheantar nuair a bhí sé ina leanbh .
athsheoladh Roibeard I , Rí na nAlbanach
An Nua-Shéalainn - Lá Waitangi
Ceimic - Linus Pauling
Maighean Rátha , Contae Laoise
Ollscoil Cambridge , Our Lady and the English Martyrs Church
St Johns , Sydenham
Pádraig Harrington ( 2 )
Nioclás Mac Riocaird
Óglaigh na hÉireann ( Fórsaí Cosanta na hÉireann )
Ní raibh a lán eolas ag Grohl faoin bhanna seo , ach bhí sé sásta dul go dtí Seattle agus triail a bhaint as .
Cumann na nÉireannach Aontaithe
athsheoladh Seoirse III na Breataine Móire agus na hÉireann
' '' Séarlas I , Rí Shasana , na hÉireann agus na hAlban '' ' ( Teàrlach I Stiùbhairt ) 1625–1649
Níór ghlac sé páirt san Olltoghchán 2016 .
**Shelby ( Tress MacNeille )
Na hOileáin Bhailéaracha
athsheoladh Kerrang ! TV
Peairt , Am Port Mór
' '' Pat Byrne '' '
Gníomhaireacht Náisiúnta um Bainistíocht Sócmhainní
Bealach an t-Suidhe , Bun Abha , Baile Eilidh , Baile Bhóid , Baile nan Stiúbhartach , Baile na Gréine , Am Barra Calltainn , Am Baile Bóidheach , Am Barra Calltainn , Baile Meadhonach
''Boromir '' , neach daonna - Sean Bean
athsheoladh Raidió Teilifís Éireann
Ceol traidisiúnta na hÉireann
Tá an dráma bunaithe ar shaol an rí stairiúil Risteard III .
athsheoladh The X Factor ( RA sraith 3 )
' '' 351 '' ' - An Phortaingéil
Bhí sé ina bhall den ghrúpa Westlife .
' '' Tá sé suite san Muirthead , in iarthuaisceart Chontae Mhuigh Eo .
Sa bhliain chéanna , chuaigh sé isteach i Conradh na Gaeilge .
Bliain Idirnáisiúnta na Geoifisice
athsheoladh Páirtí Poblachtach Sóisialach na hÉireann
Tá ceanncheathrú Apple Inc . lonnaithe ann .
athsheoladh The X Factor ( RA sraith 3 )
Joan Burton ( 2014–2016 )
Victoria na Ríochta Aontaithe
athsheoladh The X Factor ( RA sraith 11 )
Ba é Shane Ross agus Michael Fitzmaurice a bhunaigh an grúpa .
Albus Dumbledore '' - Richard Harris
A Crow Left of the Murder ''
**Veronica ( Tress MacNeille )
Céadchuairt Chríostóir Colambas go Meiriceá
Chaith sé tamall freisin ina eagarthóir cúnta ar fhoclóir Béarla-Gaeilge Thomáis de Bhaldraithe .
Is é ' '' ''Loud '' ' '' an cúigiú albam ón amhránaí Rihanna .
Louis XVI na Fraince
Páirc an Chrócaigh , Baile Átha Cliath
' '' Augusta '' '
Fisic - Klaus von Klitzing
Falcon Lodge , Five Ways , Four Oaks , Fox & Goose , Fox Hollies
''Fréamh an Eolais '' ar Coiscéim
An Nigéir ( 33 )
Bhí go maith agus ní raibh go holc , go dtí gur tuigeadh do Bhráithreachas na Poblachta an leas a bhí le baint as an gConradh .
' '' Leona Lewis '' '
Is dán é ' '' Subh Milis '' ' leis an údar Séamus Ó Néill .
Ar Rakiyat , Al Rayyan , Ar Ru'ays , Ras Laffan
athsheoladh Tomás Ó Cléirigh
CLG Chontae Bhaile Átha Cliath
athsheoladh Corraíl ( réalteolaíocht )
20px]] Polainéis na Fraince ''
Derek Ó Loinn
Bhí 3 mheánscoil le hoscailt faoi Ag Foghlaim le Chéile sa bhliain 2014 , iad suite i Baile Bhlainséir , Droichead Átha agus Leamhcán .
Tá sé ar BBC One .
Tháinig sé i gcomharbacht ar Naomh Pius X agus tháinig Pius XI ina dhiaidh .
Brian Pádraig Ó Luineacháin
An Dún , Deimhidh , Dúnaidh , Druim M'Aodhaig , Dún Eicht , Déir
Fisic - Leon Max Lederman , Melvin Schwartz , agus Jack Steinberger
San Juan , Pórtó Ríce .
Íochtar Cua , Institiúid Teicneolaíochta Trá Lí
athsheoladh Camden , New South Wales
Tá sé suite i Contae Shligigh .
Obar Chiardair , Obar Bhuadhnait , Obar Luathnait , Obar Dobhair
Is é Basseterre an phríomhchathair agus an chathair is mó sa tír .
Bealach an t-Suidhe , Bun Abha , Baile Eilidh , Baile Bhóid , Baile nan Stiúbhartach , Baile na Gréine , Am Barra Calltainn , Am Baile Bóidheach , Baile Meadhonach
Muileann gaoithe Bhaile Chóplainn , Mainistir Mhaigh Bhile , Mainistir na hInse
athsheoladh Impire ( leamhan )
Beauregard '' ' ( Tony Barbieri )
athsheoladh Sport Lisboa e Benfica
As Baile Átha Cliath dó , agus d'fhrestail sé ar Choláiste Thír An Iúir Duibhe .
Seán Mac Réamoinn
Muiris Ó Daimhín
Glas Naíon ( ''Glasnevin '' )
Ba é Bord Soláthair an Leictreachais a bhain an úsáid ba mhó as an tseirbhís seo .
Peterborough , An Ríocht Aontaithe .
Páirc an Chrócaigh , Baile Átha Cliath
As an gCromán i Contae Chiarraí dó .
Ba thaiscealaí é a mhac Sebastian Cabot freisin .
Fairlop , Fullwell Cross
Unión General de Trabajadores
Rinne sí staidéar faoi Franz Boas .
Newcastle United Football Club
Eagraíocht Chonradh an Atlantaigh Thuaidh
Drochaid Éireann , Drochaid Theilt , Dún Chailleann , Dáil Ghiuthais , Dul
athsheoladh Chelsea Football Club
athsheoladh Juventus Football Club
Tá a cheanncheathrú suite i Baile Átha Cliath .
Canadóir Christy Moore .
athsheoladh Real Club Deportivo de La Coruña
Ceimic - Ahmed Zewail
Seán Mac Réamainn , ceannaire Pháirtí Parlaiminteach na hÉireann
athsheoladh Micheál Mac Liammhóir
Is as Contae Luimnigh é .
Droichead Abhainn na Life , Droichead Annesley , Droichead an Athar Maitiú
Liam Tomás Mac Cosgair
Meastar gur foirm shaothraithe den bhaláiste é .
Takamatsu , An tSeapáin .
''Reepicheep '' - Simon Pegg
Dail Mheinidh , Dail Ruigh , Druim Bráigh
athsheoladh An Mhí Thoir ( Dáilcheantar )
D'fhreastail sé ar Choláiste Eoin ( ) agus ar UCD , áit ar bhain sé céim amach san
athsheoladh Cluichí Oilimpeacha do Dhaoine óga an tSamhraidh 2014
Is i Nua Eabhrac sa bhliain 3000 atá an tsraith bunaithe .
**Donny ( Topher Grace )
Tá sé teorainn ar theorainn le Domhnach Míde agus leis An gCúlóg freisin .
Músaem Iompair Londain , Madame Tussauds , The Mall
Maraíodh eisean agus seisear déag dá chomrádaithe eile , rud a cuireadh síos de dhíoltas Naomh Pádraig .
' '' Tá sé suite in Iorras , in iarthuaisceart Chontae Mhuigh Eo .
It 's Not me , It 's You ''
Ansin , phós sé a sheanleannán Eva Braun .
athsheoladh Charles X na Fraince
An Uaimh ( don N51 )
Cuireann St Mary 's University ranganna saor in aisce ar fáil do foghlaimeoirí .
An Ghearmáin ( 289 )
Ollscoil Dhún Éideann , Oilthigh Heriot-Watt
Ghlac sé a chreideamh chuige arís nuair a ghlac sé le hargóint an deartha , cé gur chreid sé go raibh nósanna Eaglais Shasana go háiféiseach agus gur mó a bhain siad le hord moráltachta ná le Dia .
Stáisiún Inis Córthaidh , Stáisiún Ghuaire , Stáisiún Chalafort Ros Láir
Tadhg Óg Ó Cianáin
Dolmain Chnoc an Bhrúnaigh
Comhghuaillíocht an Phobail roimh Bhrabús
athsheoladh Tíotán ( miotaseolaíocht )
Mainistir na Gráinsí , Mainistir Mhuire
' '' Sasana '' '
Caisleán Bhaile an Mhóta
An Nás , Contae Chill Dara
' '' Tá sé suite san Muirthead , in iarthuaisceart Chontae Mhuigh Eo .
London With The Lights On ''
Nicholas Williams a chuir eagar air .
' '' Damien English '' '
Charlotte Brontë - scríbhneoir
athsheoladh Glór Traidisiúnta Aontachtach
RTÉ a hAon
athsheoladh Bohemian Football Club
Scríobh Nuala Ní Dhomhnaill an dán seo , ' '' Tusa '' ' .
An Bhulgáir ( 38 )
fidléir í Mairéad Ní Mhaonaigh .
Poblacht na Macadóine ( 8,426 )
Corn na Breataine
athsheoladh The X Factor ( RA sraith 6 )
Sa chnáimhseachas , tús a chur le breith clainne ar bhealach saorga .
athsheoladh Roibeard II , Rí na nAlbanach
Falconwood , Foots Cray
Poblacht Mhósaimbíc ( 3 )
Michael Faraday , ( 1791-1867 ) ,
League of Ireland Premier Division
Páirc Náisiúnta Bhaile Chruaich
Barrys Reef , Victoria
Comhghuaillíocht an Phobail roimh Bhrabús
athsheoladh Football Club Internazionale Milano
Tá trí shiopa acu i Cúige Mumhan freisin .
Tá sí suite i Droim Conrach , Baile Átha Cliath .
Mainistir Chill Droichid , Mainistir Chill Dara
' '' Tá sé suite i Clann Mhuiris , i Contae Mhaigh Eo .
Tháinig a neacht , Victoria , i gcomharbacht air siúd .
As Tamhnaigh Naomh i Contae an Dúin dó .
Ceimic - Hermann Staudinger
Vladimir Kramnik , 2006–2007 An Rúis
athsheoladh Poblacht na Macadóine
Éadbhard V Shasana
Gach amhrán le Lennon / McCartney , ach amháin iad le nótaí .
RTÉ a hAon
Domhnach Broc ( ''Donnybrook '' )
Cárna , Corrachadh Mór
Ceann a ' Bhárra , Cille Pheadair , Coille an Dail , Cill Bhearchain
Seosamh Ó Cainín
Cara leis ab ea Voltaire .
Machaire Rátha , An Mullach Mór , Mír Mhíchíl , Maigh Bheag
Tá clú air toisc an obair a rinne sé i leith fórsaí forlíontaigh a aimsítear i bhfráma tagartha rothlach , agus glaodh an fórsa áirithe , Iarmhairt ''Coriolis '' ina dhiaidh .
**Cameron , ( Tress MacNeille )
B'é Gene Roddenberry a chum is a cheap an tsraith agus an ollchruinne ina raibh sí suite .
Taibhdhearc na Gaillimhe
Is ann a imríonn Cumann Peile Choláiste na hOllscoile , Baile Átha Cliath .
Tadhg Óg Ó Cianáin
Bhí clú agus cáil ar bhaill eile den teaghlach agus iad sa ghrúpa Clannad .
Bhí aithne aige ar Iognáid Loyola agus bhí sé ina bhall de Chumann Íosa .
Tá sí suite i ndeisceart Honshu .
athsheoladh The X Factor ( RA sraith 3 )
Bhí bua tábhachtach ag an gcathlán i Cill Dhéagláin , Contae na Mí , áit a ndeachaigh siad i mbun ionsaí ar fhórsa a bhí i bhfad níos mó .
' '' Tá sé suite san Muirthead , in iarthuaisceart Chontae Mhuigh Eo .
athsheoladh Gordon , Victoria
Eagraíocht Idirnáisiúnta na gCaighdeán
Stáit Chónaidhme na Micrinéise
Ina dhiaidh sin chuir sé an tImpire Napoleon III air féin .
Droichead na Dothra ,
Gach amhrán Lennon / McCartney , ach amháin iad le nóta .
Gainsborough , Grantham , Grimsby
' '' Tá sé suite i Cill Mheáin , i Contae Mhaigh Eo .
Muiris Mac Gearailt , Séamas Ó Muíneacháin
Ath-eagraíodh Cumann Fhéinrialtas Éireann mar Pháirtí Parlaiminteach na hÉireann faoi cheannais Charles Stewart Parnell
Séamus Proinsias Éadbhard Stiúbhart
Deirtear gur Hóiméar a scríobh é .
An Dubh Allt , An Druim Dubh , Deagh Mhonadh
' '' An Roinn Ealaíon , Oidhreachta agus Gaeltachta '' '
Baile Átha Luain
Cúirt Bhreithiúnais Eorpach
Minneapolis , Minnesota
Maenmar ( 1 )
Páirc Uí Chíosóig , Inis
Wu-Tang Clan ( Loud / Columbia )
Na Creagacha Dubha , Ceann Chlochair , Collann
Is é Tula an phríomhchathair .
athsheoladh Éanna Ó Coinnigh
Inis Cathaigh , Inis na Canánach
Carl von Linné
David Walliams - Sextus
athsheoladh Manchester United Football Club
To Beast Or Not To Beast ''
Níór ghlac sé páirt san Olltoghchán 2016 .
Cnoc na Muc , Cnoc na Binne , Cumar na dTrí Uisce
athsheoladh Patella ( gastrapóid )
I ngléasanna simplí , cosúil leis an mbuabhall , ní bhíonn ar fáil ach nótaí ag bun sraithe amónaí .
CLG Na Seamróga Baile Héil
An t-Sáilean , Sanna
46 Aiden McGeady - imreoir lárpháirce
Baile Mo Thatha , Blár Lagaidh , Both Chuidir , Baile Deadhan , Badan Deathach
Músaem agus Gailearaí Ealaíne Derby , Melbourne Hall
Louis XIII na Fraince
athsheoladh CLG Na Seamróga Baile Héil
le Seán Mac Mathúna ( B .
Bunaíodh Naomh Agaistín í ar an 607AD .
Tír na mBascach
Lindisfarne , Loch Greenlee , Loch Broomlee , Loch Crag
Chaith sé tamall mar mhac léinn i Coláiste na Tríonóide , Baile Átha Cliath , agus cháiligh mar dhlíodóir .
Tá sé ag obair ar leagan Seicise de Cré na Cille '' .
Mile End , Millwall
Ningxia ( 宁夏回族自治区 )
Castleton , Chapel-en-le-Frith , Chesterfield , Clay Cross
Baile Nóra , Baile Uí Shé
Brian Ó Comhain
Béal Easa , Béal Átha Bhearaigh , Béal Átha na Muice
Chatsworth House , Calke Abbey , Creswell Crags , Caisleán Bolsover
** Ollscoil na hÉireann , Gaillimh
athsheoladh Hugo Henrik Alvar Aalto
Imríonn siad sa Madejski Stadium .
Moses Mabhida Stadium , Durban
Ball Fhianna Fáil a bhí ann .
Tá campas ag Ollscoil Uladh ins an chathair fosta .
Is ball Fhine Gael é .
Baile an Áisigh ,
athsheoladh Foireann sacair náisiúnta Phoblacht na hÉireann
Eagraíocht Tíortha Onnmhairithe an Pheitriliam
Baile an Bhóthair ,
Fisic - Alexei Alexeyevich Abrikosov , Vitaly Lazarevich Ginzburg , Anthony Leggett
Clent Hills , Council House
Tá sé mar chuid de Cumann Lúthchleas Gael na Breataine .
Pádraig Ó hIrighile
Y Barri , Y Rhws , Y Wig
Micheál Ó Domhnaill
J. R. R. Tolkien a scríobh agus a mhaisigh .
San am sin , ní raibh Sinn Féin sásta foréigean d'aon chineál a cheadú go hoifigiúil .
Norwich Over the Water
Ajax - Feyenoord ( ''De Klassieker '' )
Eamonn Coghlan , lúthchleasaí
Cletus]] , Professor Frink , Dr. Nick agus eile
Eas Allt an Tairbh , Eas an Fhamhair , Eas nan Coireachan
Breandán Ó hEithir , scríbhneoir agus craoltóir , ( 1930–1990 ) .
Feárnan , Feith nan Ceann , Forgrann Eithne , Fothair Tabhaicht , Fartairchill
Pápa Beinidict XVI
athsheoladh Lios na Gráinsí
athsheoladh Georges J. F. Köhler
I ndáiríre , ceaptar go raibh sé i Talamh an Éisc .
Tá Páirc an Chrócaigh suite ann .
Pinocchio ( carachtar )
An Coláiste Ollscoile , Baile Átha Cliath
athsheoladh University College Dublin Association Football Club
J. R. R. Tolkien
Urraitheoir Usain Bolt is ea é .
Ainmnithe as Wilhelm Weber .
Flúirseach i bhfarraigí cladaigh na hEorpa .
B'as Gaillimh a bhean , Nora Barnacle .
Beirlín ( cathairstát )
Eaglais Cheartchreidmheach na Rúise
Is ann atá Ospidéal Ginearálta Naomh Lúcás , Cill Chainnigh agus Aut Even lonnaithe .
*1989–1994 , Proinsias Mac Aonghusa
Sarah Purser ( 1848–1943 ) , ealaíontóir
Dúchasach do Mheiriceá Thuaidh , ach saothraithe is tugtha chun cineáil i gcuid mhaith tíortha eile .
Comhghuaillíocht an Phobail roimh Bhrabús
Imríonn an fhoireann sa Stadio Luigi Ferraris , le 36,743 suíochán .
Sigourney Weaver mar í féin
Eolas ar ''An Guth '' ar shuíomh de chuid Coiscéim
Baile an Chláir ( N1 ar aghaidh go BÁC )
Brick Lane , The Blind Beggar
Éadbhard Ó Cathaoir
Páirc Náiseanta a ' Mhonaidh Ruaidh
Is suite í san Tuirc .
B'é seo an chéad scéal faoi John Carter .
An Lár-Réigiún Thiar
An-chuid saghsanna atá éagsúil i méid , cruth is a n-oiriúniú dá gcomhshaol .
Sgír-Easbuig Earragháidheal 's nan Eilean , Stéisean na Tairbeart
ATHSHEOLADH Liam Ó Maonlaí
Tá an t-ardeaspag bunaithe ag Ardeaglais Canterbury .
Páirtí an Lucht Oibre ( Éire )
athsheoladh Dmitri Anatolyevich Medvedev
athsheoladh Pádraig Ua Duinnín
St George 's Hall
athsheoladh Sportverein Austria Salzburg
Bardasacht i gcúige Cáceres , Extremadura , sa Spáinn is ea ' '' Montehermoso '' ' .
Otto von Bismarck
D’fhoilsigh Cló Iar-Chonnacht cnuasach dá chuid scéalta ( ''Teachtaireacht '' ) sa bhliain 2015 .
Sa bhfisic , an gaol idir tonnta .
Jagadguru Kripaluji Maharaj
Halla na Cathrach , The Clink
athsheoladh Thomas Romney Robinson
Sa cheimic , suimiú oiread rialaithe eisíontais chun airíonna ábhair a athrú as cuimse .
Is é Arnold Schwarzenegger a ghlacann an príomhról .
Drumadóir nádúrtha ab ea é. Thaitin an banna Led Zeppelin go mór leis , agus i gceann tamaill bhí laoch nua aige , an drumadóir John Bonham .
Páirc Uí Fhearchair , Páirc an Bhreathnaigh
H. P. Lovecraft
Cathair Amain , Cas Chaolas , Calltuinn , Creag an t-Sionnaich , Creag Líte , Creag Longairt , Creag a ' Mhuilleir , Currach , Cnoc a ' Churraich , An Ceann Siar , Cnocan an Righ
athsheoladh Constance Gore-Booth Markiewicz
athsheoladh Páirc Chnocán Uí Dhálaigh
Neasden , Northwick Park
Bhunaigh sé an Garda Síochána ( in áit Chonstáblacht Ríoga na hÉireann ) chun an dlí a choinneáil i bhfeidhm agus an tsíocháin a choimeád .
Is roinn rialtas é ' '' an Roinn Leanaí agus Gnóthaí Óige '' ' , suite i Contae Bhaile Átha Cliath .
Radio City Tower , Royal Liver Building
Coire Bhreacain , Caol Íle
athsheoladh Stáisiún Chill Airne
Séamas Ó Callanáin
Conchúr Crús Ó Briain
Réamhfhocal le Christopher Hitchens .
Páirc an Chrócaigh , Baile Átha Cliath
Generalitat de Catalunya
athsheoladh Futbol Club Barcelona
Shepperton , Staines-upon-Thames , Sunbury-on-Thames
Limistéar an euro
Santa 's Little Helper
Peaks Hill , Pollards Hill , Purley
Donncha Ó Moráin
STV ( 2006- )
An Abhainn Dubh ( Contae Mhaigh Eo )
Sampla maith iad scéalta Edgar Rice Burroughs faoi Barsoom .
Is léir nach féidir gan Fyodor Dostoyevsky a lua sa choimhthéacs seo .
Forster Square , Frizinghall
athsheoladh Tomás Ó Cléirigh
athsheoladh CLG Gaeil Blath Gall
An Tuirc ( 29,500 )
Lamel Hill , Layerthorpe
' '' Tá sé suite sa Mhuirthead , in iarthuaisceart Chontae Mhuigh Eo .
Jagadguru Kripaluji Maharaj
athsheoladh Robert Devereux , 2ú Iarla Essex
Kingston upon Hull
' '' Andrea Begley '' '
Sí an Bhrú , Stáisiún Baile Mhic Gormáin , Stáisiún na hInse , Scoil Clásicach Naomh Pádraig , Scoil Trócaire Naomh Iósaf
New Parks , Newfoundpool
Tá léargas náisiúnach measartha ag an pháipéir .
36 John Paul Kissock
Tá sé ina bhall de Fine Gael .
athsheoladh Sliabh Everest ( Teomólungma )
Carnforth , Chorley , Clayton-le-Moors , Cleveleys , Clitheroe
' '' Sam Bailey '' '
Ceimic - Harold Clayton Urey
Áine na Breataine Móire
Asti , An Iodáil .
Máirtín Mag Aonghusa
David Schwimmer - Melman
' '' Do n't Forget '' ' ''
Máel Sechnaill mac Domnaill
Claus Schenk von Stauffenberg
' '' FG '' ' - Fine Gael
Is é ' '' ''DNA '' ' '' an chéad albam ón popghrúpa Little Mix .
Na hArdtailte Theas , Abhainn Thuaidh
athsheoladh Joan Collins ( polaiteoir )
Jim Jarmusch - Stiúrthóir , Léiritheoir , Scríbhneoir .
Ard-diúc Franz Ferdinand na hOstaire
Leeds United Association Football Club
Tá sé roinnte idir oileán Thalamh an Éisc , agus Labradar ar an míntír .
Droichead Uí Dhonnabháin Rosa
' '' Tá sé suite san Muirthead , in iarthuaisceart Chontae Mhuigh Eo .
Tá an eagraíocht maoinithe as an státchiste .
Tá sé ina bhall de Fianna Fáil .
Is é Yaroslavl an chathair is mó agus an phríomhchathair .
athsheoladh George Lee ( iriseoir )
Ráth Caola , An Ráithín
athsheoladh Stailc agus Frithdhúnadh 1913 ( Baile Átha Cliath )
athsheoladh Two Door Cinema Club
=== Star Trek : The Original Series ===
Páirc a ' Bhucht , Poileas a ' Chinn a Tuath , Príosan Achadh a ' Phortair , Páirc nan Laoch
An Droim , Dún Gar , An Dísirt
De réir daonáireamh S.A.M .
Gaoth Dobhair , Gartán , Gleann Cholm Cille , Gort an Choirce
Jules Verne a scríobh .
Camas Long , Cathair MoLuaig , Cille Bhríghde an Ear , A ' Chathair Nuadh , Caisteal Tarrais , Creamhain Eóin , A’ Choitcheann , Comh Dobhair Alt
Tá sí suite idir Cúige Irkutsk agus an Phoblacht Buryat .
As seo is ea a d'fhás an nós thart faoi Éirinn agus níos faide i gcéin oilirtheacht a thabhairt ar Loch Dearg .
Contae Dhún na nGall
Arbor Low , All Saints Church
RTÉ Raidió na Gaeltachta
Míolabhaig , Malaig , Meallan Theárlaich , Meallan Údraigil , A ' Mhealbhaich , Mórar , A ' Mhór-choille , A’ Mhormhaich , A ' Mhóigh , A ' Mhuigh , A ' Mhanachainn , Muir Síorlaich , Marc-Innis
Éamon de Valera , Fianna Fáil , 56.3 % ;
Ceimic - Aaron Ciechanover , Avram Hershko , Irwin Rose
Donnchadh Bán Mac an tSaoir
Réamhinis William Rowan Hamilton an feiniméan seo ar bhonn teoiriciúil .
Caoimhín Ó hUiginn
Sheas sé in Olltoghchán 2016 agus d'éirigh leis ann .
' '' Louisa Johnson '' '
Incubus ( banna )
Is as Contae an Chláir é .
' '' Tá sé suite i Clann Mhuiris , i Contae Mhaigh Eo .
Ruigh an Lóin , An Ruigh Cóinnich , Raoghard
athsheoladh Seirbhís Phóilíneachta Thuaisceart Éireann
Ba ansin a cheádchas sé ar Sheán Ó Riada .
Abbey Road , Albert Memorial , Áirse Wellington , Ardeaglais Westminster , Abtheach Westminster
Carl von Linné
Mount Egerton , Victoria
athsheoladh The X Factor ( RA sraith 10 )
An Páirtí Coimeádach ( An Ríocht Aontaithe )
Tá sé ina bhall de Fine Gael .
Bhí Trotscaí i gceannas orthu agus cruthaigh sé fórsa níos gairmiúla a bhunú , trí coinscríobh a thabhairt isteach .
Tá an togra ar fad faoi stiúir an Wikimedia Foundation , eagraíocht a oibríonn gan bhrabach agus atá i dtaobh le síntiúis .
Tá an chathair suite i Tyne and Wear , oirthuaisceart Shasana .
athsheoladh University College Dublin Association Football Club
Oileáin Árann , Oileán a Ghabhair ghil , Oileán Eide
athsheoladh Sliabh Everest ( Teomólungma )
Cineál den mhianra beirile a úsáidtear mar sheoid .
Latchbrook , Launceston , Liskeard , Looe , Lostwithiel
Ciarán Ó Faoláin
Áitríonn sé riasca lár na hAfraice .
Daniel Campbell , Donald Caskie , Dún Bhruichlinn , Dún Guaidhre
Ba é Brian Ó Luineacháin , an Tánaiste , an t-iarrthóir a bhí ag Fianna Fáil .
Dónall Ó Conaill
Garmhac le Tomás Ó Criomhthain ab ea é. Bhí sé fostaithe chun obair a dhéanamh ar an Irish-English Dicionary .
Baile Dhunléibhe a Tuath , Baile Dhunléibhe a Deas
Fisic - William Bradford Shockley , John Bardeen , agus Walter Houser Brattain
' '' Tá sé suite san Muirthead , in iarthuaisceart Chontae Mhuigh Eo .
Gnaeus Pompeius Magnus
Bacup , Blackburn , Blackpool , Burnley
Is í Nua-Eabhrac an chathair is mó .
Acle , Attleborough , Aylsham
Bhí sé ina chonaí i Londain , ach anois tá sé ag staidear ar Ollscoil Cambridge .
Donncha Ó Moráin
Barrow-in-Furness , Bowness-on-Windermere , Brampton , Broughton-in-Furness , Blencarn
' '' Tá sé suite i Contae Mhaigh Eo .
Tá sé suite i Contae Shligigh .
Tadhg Óg Ó Cianáin
Madog ap Maredudd ( 1132–1160 )
Déantar an leasú seo go foirméalta trí Teoirim Bayes .
Niall Ó Dónaill a roghnaigh agus a chuir in eagar .
Ba breithimh é ar The Voice .
** Coláiste na Tríonóide , Baile Átha Cliath
As Contae Dhún na nGall dó .
Tá sí suite i ndeisceart Kyushu .
athsheoladh An Coláiste Ollscoile , Baile Átha Cliath
Tobar Adaidh , Tórr Fhitheachan
' '' Sraith na hÉireann ' ''
athsheoladh Cumann Peile Chláirsigh na Finne
Monadh a ' Bhuith
Trevor Sargent ( 2001–2007 )
ATHSHEOLADH Kathryn D. Sullivan
athsheoladh Caisleán Bhaile Muáin
Na hOileáin Fhilipíneacha
Bhunaigh sé an corparáid Microsoft in éineacht le Paul Allen .
Pumbaa - Ernie Sabella
Ros na Rún -
Fernão de Magalhães
Ceimic - Ernest Rutherford
D'éag sé i Maidrid .
Ruaidri mac Tairrdelbach Ua Conchobair 1166-1186 .
Suaitheadh ghnáthrithim rialta an chroí .
Uaidh sin , cuireadh an téarma in úsáid , freisin , le tagairt Impireacht na Breataine agus do Chomhlathas na Náisiún .
Níor fheabhsaigh a shláinte agus bhí air cur faoi i dteach altranais i Baile Átha Cliath .
Derry City Football Club
athsheoladh Wexford Youths Football Club
Bhunaigh Quintus Caecilius Metellus Pius é sa bhliain 75 R.Ch .
Tháinig a mhac , Éadbhard III , i gcomharbacht air .
Ainmnithe as Harvey Williams Cushing .
Ceimic - Theodor Svedberg
As Contae Chiarraí dó .
Is as Luton é ' '' Jaymi Hensley '' ' .
athsheoladh Museu de Arte de São Paulo
Cearnóg Mhic Liam , Cearnóg Mhuinseo , Cearnóg Mhuirfean
=== São Paulo ( SP ) ===
** ' '' Tinkles '' ' ( Tara Strong )
Balla an Bhulla , Busáras , Banc Ceannais na hÉireann , Balla an Bhulla Theas , Bardas Bhaile Átha Cliath
An Ros , Co. Átha Cliath
An Machaire Buí , An Machaire Steafánach
Liam III Shasana
athsheoladh Baile Átha Cliath Láir
''Saruman '' - Christopher Lee
''Saoghal corrach '' , Séamus Ó Grianna
Pádraig Mac Piarais
Tomás Ó Fiaich a chuir in eagar .
Caisleán Colchester , Copped Hall
athsheoladh Football Club Internazionale Milano
Tá sé ina bhall de Fianna Fáil .
An tSiria ( 2 )
Páirtí na Sóisialaithe Réabhlóideacha
Innis Tuathar , Inbhir Ghobharaidh
An tSacsain ( ''Sachsen '' )
Is i Baile Átha Cliath a fuair sé bás .
Mablethorpe , Market Deeping , Market Rasen
Spreagadh “Treasure Island” de chuid Robert Louis Stevenson fiú amháin , de bharra chuid eachtraí .
athsheoladh Taobh an Phortaigh
Páirtí Aontachtach Uladh
Corda ( ceol )
Seas sé san Olltoghchán 2016 agus toghadh é .
Is é Alasca an ceann is mó achar acu , agus California ar an gceann is líonmhaire daonra .
Curtha i bhfoirmlí is i bhfocail ag Isaac Newton , go bunúsach ina 3 dhlí gluaisne .
Ball den Pháirtí Poblachtach atá inti .
Is é an iompairc comhroinnte leis an Shelbourne an iompairc den sórt is sine .
Bhí Nikolaas Tinbergen mar theagascóir aige ansin .
Tháinig Brian Ó Comhain i gcomharbacht air .
Leeds United Association Football Club
Páirc an Chrócaigh , Baile Átha Cliath
' '' Tá sé suite i Muraisc , i Contae Mhaigh Eo .
Goldthorn Park , Gorsebrook , Graiseley
Ceimic - Fritz Haber
Príomh-Aire na hAstráile
' '' Mayor West '' '
athsheoladh Felix von Luckner
Free State Stadium , Bloemfontein
Deartháir leis an úrscéalaí cáiliúil Henry James .
Meall Buidhe , Meall Glas , Meall Odhar , Monadh Ochail
athsheoladh Loch na Caol
Iarthar na Cathrach ,
Baile Sear , Bhuia
Músaem Oxford , St Michael at the North Gate
Liverpool Football Club
Anhui ( 安徽 )
Chum Brahms cuid mhaith samplaí cáiliúla .
Abraham `` Abe '' Simpson
athsheoladh Alexandre Edmond Becquerel
Aird a ' Mhaolain , Áth na Sgléata
Páirc an Chrócaigh , Baile Átha Cliath
' '' Kian Egan '' '
Bhí sé dúchasach don Afraic Theas .
ceapadh é ina Rí Anraí IV Shasana .
Oileán Staten , Nua Eabhrac
== Poblacht na hÉireann ==
Universidade Estadual de Feira de Santana
Enzo Ferrari ag ocht mbliana d'aois
UTV ( 1959- )
Seven Sisters , St Anns , Stroud Green
Bunaíodh an chathair Osló
Is as Bun na Raite , Contae an Chláir é ' '' Gari Deegan '' ' .
Tomás Ó Cionnaith
Somhairle Buí Mac Domhnaill
Tá sí suite i oirthear Kyushu .
Tom Waits - D.J Radió ( guth )
Belle and Sebastian
Forógra Neamhspleáchais na hÉireann
' '' An Roinn Airgeadais '' '
Angelina Jolie mar ''Lola ''
Brian Mac Giolla Meidhre
An Fhrainc ( 3 )
Tá Ollscoil Cambridge bunaithe
**Betsy Bidwell ( Tress MacNeille )
ATHSHEOLADH Cumann Lúthchleas Gael
' '' Tá sé suite i Contae Mhaigh Eo .
' '' Andrea Begley '' 'Karl MichaelMitchel Emms
An Eastóin , An Rúis , An Laitvia , An Bhealarúis
Seán Óg Ó hAilpín
Bhíodh sé ina bhall den ghrúpa ABBA .
Castlecroft , Chapel Ash , Claregate , Compton , Coseley
Baile Sheáin , Talamh an Éisc , Ceanada
athsheoladh San Proinsias Assisi
Brian Ó Luineacháin , Fianna Fáil , 44.1 % ;
D'oirnigh Naomh Pól é ina shagart .
Tá sí i lár Ghaeltacht Chonamara .
Natsume Sōseki ( 1867–1916 )
Cathedral Church of St Marie
Flada , Fraoch Eilean
Diarmaid Mac Murchadha
Na Tathagan , Na Trí Port Mara , Na Tathagan , An Todhar , Toirbheartan , Toghsgaig , Toll a ' Mhadaidh
Is as Gaillimh dó .
Tuaim Íochtarach , Tuaim Uachtarach
Tobar Eoin , Tulach Ruáin , An Tigh Rua , Tulach Dhocht
Tá sé saothraithe mar phlanda ornáideach san Eoraip agus i Meiriceá Thuaidh .
Tá sé ina bhall de Fine Gael .
Duighreach , Dún Barra , An Druim Dubh , Deagh Mhonadh
Tá sé suite in iarthar Chontae Chill Mhantáin .
Saighdiúirí dubha nó dearga a bhí i mbeirt dhaoine is ceithre scór acu .
Páirtí Sóisialach ( Éire )
Is fuath léi Homer .
' '' Tá sé suite i Ceara , i Contae Mhaigh Eo .
St Peter 's Collegiate Church
Rage Against the Machine
Brian Ó hÓgáin
Donncha Ó Cochláin
Bhí Ruairí Ó Conchúir ar duine acu siúd a básaíodh ar a chuid orduithe , cé go raibh sé ina vaidhtéir ag a bhainis .
Ásgeir Ásgeirsson ( 1952-1968 )
athsheoladh Bohemian Football Club
Tá sí suite i lár oirthear Honshu .
athsheoladh It 's Not me , It 's You
D'imir sé le Bolton Wanderers roimhe sin .
Siopa ( Centra )
Fuair sé bás i Cathair Nua-Eabhrac .
Páirc Náisiúnta Sléibhte Chill Mhantáin
Langstone , Llan-wern , Llanfaches , Llanfihangel-y-Fedw , Llyswyrny
' '' 46 '' ' – An tSualainn
Le George Porter , cheap sé an splancfhótalú chun imoibrithe tapa a anailísiú .
Is é Jamestown an phríomhchathair .
' '' Lois Griffin '' ' , an mháthair
Bhog an teaghlach go Contae Ros Comáin agus chuaigh siad chun cónaí lena athair , rud a bhí tionchar mór aige ar a shaol agus go háirithe ar a shaothar .
Prióireacht Bhaile an Sceilg
Magh nó Ceann an Droichid ( don N13 )
Shepherd 's Bush Empire , Stamford Bridge
Drumadóir tréitheach ab ea é Keith Moon , ach duine buartha ag an am céanna .
J. K. Rowling
Ardeaglais Chichester , Ardeaglais Arundel
athsheoladh Comhairle Chathair Moreland
athsheoladh Arnulf de Carinthia
athsheoladh University College Dublin Association Football Club
Gan dáta – Ibn Battuta , taistealaí Maracach ( b .
athsheoladh Foireann rugbaí náisiúnta na hÉireann
athsheoladh Middlesbrough Football Club
Eanach Mór , Eanach Aodha , Éadan na bhFiach
Taiwan ( 台湾 ) †
J. J. Ó Dúláinne
athsheoladh Máire I , Banríon na nAlbanach
Músaem Chontae Dhún na nGall
Tang Hall , Towthorpe
An Fhoraois Dhubh
Fisic – Niels Henrik David Bohr
Tá sí suite i oirdeisceart Honshu .
athsheoladh The X Factor ( RA sraith 11 )
Wheldrake , Wigginton , Woodthorpe
Séadchomharthaí Náisiúnta na hÉireann
Is í an chathair is sine í i Stáit Aontaithe Mheiriceá .
Is deirfiúr í leis an amhránaí agus scríbhneoir Christine Charbonneau .
Páirc an Chrócaigh , Baile Átha Cliath
Bell X1 ( banna )
Ba dheirfiúr leis an scríbhneoir clúiteach Liam Ó Flaithearta í a mháthair .
' '' Albany '' '
Tá sé ar BBC One .
Tollán Chalafort Bhaile Átha Cliath
Palmers Green , Ponders End
Coláiste na Carraige Duibhe
As Contae Chiarraí dó .
Bhí sí le toghadh i ndáilcheantar Mhanchain , an áit a raibh Winston Churchill ina iarrthóir chomh maith .
Is as Contae Luimnigh é .
Cumann Peile na hÉireann
]] Stáit Chónaidhme na Micrinéise
Is as Contae Luimnigh é .
`` Treehouse of Horror XXVI ''
Ní bheidh Louis Walsh ag filleadh .
Is é Chris Christie , ball den Pháirtí Poblachtach , an gobharnóir .
Tá clú agus cáil ar Mhairéad mar bhall ar an grúpa fíorcháiliúil Altan .
athsheoladh Gruffudd ap Madog
Garbh Eileaich , Garbh Eileach , Gleann a ' Chró , Gleann Urchaidh , An Gearr Loch , Giogha , Gleann Freóin
Breadhaig , Bun na Dubh Abhann
William Máirtín Ó Murchadha
Le linn dó a bheith ag imirt ann b'fhacthas a ardscileanna do scabhta de chuid Mhanchain Aontaithe .
Luiz Inácio Lula da Silva
Nag 's Head , Newington Green
Bhíodh sí ag siúl amach le Portia de Rossi .
Is í Torino príomhchathair an réigiúin .
athsheoladh Coláiste Naomh Aloysius , Baile Átha Luain
An India - Sankranthi
Tá sé gearr do theorainn an chondae le Cill Mhantáin .
Suíomh Oidhreachta Domhanda de chuid UNESCO atá ann .
Tá sí suite i dtuaisceart Honshu .
** RTÉ a Dó HD ( 2011- )
Diarmuid Ó Súilleabháin ( iománaí )
athsheoladh Myrniong , Victoria
Ard-Eaglais Norwich , Ard-Eaglais Naomh Eoin Baiste , Norwich
Séamas Mac Fhearaigh
athsheoladh Wolverhampton Wanderers Football Club
CLG Chontae Chorcaí
Noel Grealish ( 2007–2009 )
Mícheál Ó Conghaile
Ériu ( iriseán )
Chaill Frazier a theideal dhá bhliain ina dhiaidh sin nuair a leagadh amach é ag George Foreman .
ATHSHEOLADH Gabriel García de la Torre
Franklin D. Roosevelt
Rayners Lane , Roxeth
Ailt an Chorráin , Anagaire , Ard an Rátha
St Wulfram 's Church
Bhí 80 duine i láthair ar an oíche , agus b'í Máire Mullarney a bhí ina cathaoirleach ar an gcruinniú .
' '' Tá sé suite san Iorras , in iarthuaisceart Chontae Mhuigh Eo .
athsheoladh Ceardchumann Dhochtúirí na hÉireann
The Voice ( SAM )
Dainéil , Dáiví , Deabrá
RTÉ a Dó ( 1978- )
Stéisean Dhún Déagh , Stéisean Bhruach Tatha
Is beag duine ab oilte ar an gceird nua ná Dubhghlas de hÍde , gníomhaí , scríbhneoir agus béaloideasóir .
Maighean Rátha , Mainistir Laoise , Móinteach Mílic
athsheoladh The X Factor ( RA sraith 12 )
Hamburg ( cathairstát )
Centro Federal de Educação Tecnológica de Minas Gerais
Ceimic - Sidney Altman , Thomas Cech
1949-50 Atlético de Madrid
An Cabhán ( don N55 )
Chaith sé tamall in Ollscoil Cambridge .
''Mo bhealach féin '' , Seosamh Mac Grianna
athsheoladh The X Factor ( RA sraith 10 )
Tá an oifig freagrach don Taoiseach , agus tá a ceanncheathrú suite i Corcaigh .
Tá sé ag imirt le Bayern München faoi láthair .
Scoil Chuimsitheach na Páirce Nua
athsheoladh George Johnstone Stoney
Hugo Weaving - ''V ''
Níor corónaíodh riamh é. Tháinig a uncail i gcomharbacht air mar Risteard III .
Is é Vladivostok an phríomhchathair .
Pádraic Ó Coinín ( 2002–2007 )
Bunaitheoirí tábhachtacha eile ab ea iad Eoin Mac Néill agus Eoghan Ó Gramhnaigh .
Primo Levi , ( 1919-1987 ) , Ceimiceoir agus scríbhneoir
Tá aithne níos fearr air mar urlabhraí agus príomheagarthóir WikiLeaks , láithreán gréasáin sceithireachta .
Tá siad lonnaithe an chuid is mó den am i mBaile Átha Cliath .
Deoise Achadh Conaire , Deoise Chluain Fearta , Deoise Ail Finn
Tugtar eipinéifrín air sna Stáit Aontaithe .
athsheoladh Shelbourne Football Club
Caisleán Conisbrough , Chatsworth House
Iora rua le cleitearnach mór craicinn idir a chosa tosaigh is deiridh .
Páirtí Sóisialach ( Éire )
The Corrs - Buachaill Ón Eirne
Fisic - Wolfgang Pauli
Ankara , An Tuirc .
Liverpool Football Club
Jake Gyllenhaal - Jack Twist
Stailc agus Frithdhúnadh 1913 ( Baile Átha Cliath )
An Chéinia - Lá Madaraka
Clíona Ní Chiosáin
' '' Tá sé suite san Muirthead , in iarthuaisceart Chontae Mhuigh Eo .
Pádraig Ó Spealáin
Is téarma é a úsáidtear de ghnáth maidir le daonáireamh daonra agus tithíochta a dhéantar , de réir mholtaí na Náisiún Aontaithe , gach deich mbliana .
A ' Chúilt , Cnoc an Fhorsair , Cuidhe Briste , Cultair
An Airgintín ( 2 )
Ceol traidisiúnta na hÉireann
' '' Tá sé suite in Iorras , in iarthuaisceart Chontae Mhuigh Eo .
An tSibéir Thiar ( Западно-Сибирский , ''Zapadno-Sibirsky '' )
The Voice of Ireland
Tháinig a gharmhac , Risteard II , i gcomharbacht air .
Ron Weasley '' - Rupert Grint
Tonga ( 3 )
Gnó na Rinne Thoir
Leitir Ceanainn ( don N56 )
Redcar , Richmond , Robin Hood 's Bay
athsheoladh Éamon de Valera
Hadleigh , Halesworth , Haverhill
''Chad Danforth '' ( Corbin Bleu )
Liam Tomás Mac Cosgair
1999-00 Deportivo de La Coruña
''An tOllamh McGonagall '' - Maggie Smith
Is ball den Pháirtí Daonlathach í .
An tSabhrainn , St Oswald 's Priory
Tháinig a mhac , Seoirse IV , i gcomharbacht air .
Tháinig Éadbhard IV i gcomharbacht air .
Fabio Cannavaro ( 1993-1995 )
Liam I Shasana
Is é Barack Obama an t-Uachtarán reatha .
D'oibrigh sé freisin le James Chadwick .
Tharla sé sin mar gur choinnigh siad siúd a bhí i Modh-Arm Nua Chromail a gcuid muscaed agus an púdar le cur iontu .
athsheoladh A1 ( Tuaisceart Éireann )
Go dtí sin , b'é Conradh na Náisiún a bhí i gceannas ar an gcathair .
''An tOllamh McGonagall '' - Maggie Smith
1 Víctor Valdés - cúl báire
An Oiséit Thuaidh-An Aláin
athsheoladh The X Factor ( RA sraith 10 )
Lyndon B. Johnson
** RTÉ a hAon HD ( 2013- )
*1893–1915 , Dubhghlas de hÍde
Ainmnithe as Osborne Reynolds .
Bhunaígh Art Ó Gríofa Sinn Féin .
athsheoladh Séamas VI , Albain agus Séamas I , Sasana agus Éire
Tá sé ina bhall de Fine Gael .
Earls Court Exhibition Centre
Barraigh , Beinn na Faoghla
Casadh Cathal Brugha ar Phiaras roimhe sin féin .
`` Lisa with an 'S ' ''
athsheoladh Darraweit Guim , Victoria
An Tibéid / Xizang ( 西藏自治区 )
athsheoladh Naomh Mícheál ( an tArdaingeal )
Daithí Mac Éinrí
athsheoladh Foireann rugbaí náisiúnta na hÉireann
Chuir Breandán Ó Doibhlin in eagar é .
athsheoladh Bágh a ' Chaisteil
Páirtí Daonlathach ( Stáit Aontaithe )
Faillean Innis , Fionn Treabh
Deirfiúr Marge atá inti .
athsheoladh Società Sportiva Calcio Napoli
Tá sé ina chonaí i Baile Átha Buí i Contae na Mí .
** BBC Four HD ( 2013- )
Ronald D. Laing ,
Aodhán Ó Mathúna
NASA a bhainistigh an clár iomlán seo .
athsheoladh Baile Uí Dhálaigh , Contae Thír Eoghain
Eaglais Cheartchreidmheach na Rómáine
An Chóiré Theas ( 56 )
stáit na Gearmáine 500,000
' '' Cleveland Brown '' '
Baile Átha Cliath Thoir Thuaidh
Tá sé ina bhall de Fine Gael .
Bealach an Tirialaigh ( don N6 go Baile Átha Cliath )
Tianjin ( 天津市 )
Tá sí suite i ndeisceart Honshu .
athsheoladh Olympia , Washington
athsheoladh The X Factor
=== Paraíba ( PB ) ===
Ba chara mór dá chuid an file Federico García Lorca .
James Marsden - John Wilkes Booth
Ólafur Ragnar Grímsson ( 1996-inniu )
athsheoladh Futebol Clube do Porto
Tá sé suite i Contae Mhaigh Eo .
An tSeapáin - ''Howaito dē '' ( ホワイトデー )
D'fhreastal sé ar Ollscoil Oxford .
Loch Bricleann , Loch an Oileáin , Lorgain a ' Mhíl , Lorga an Áir
Old Royal Naval College , Ollscoil Greenwich
Paracelsus , ( 1493-1541 ) ,
Santa 's Little Helpermadraí eile
athsheoladh Béal na Blá
Bhí ról tábhachtach ag Natalie Portman freisin , cé nach raibh sí ach cúig bliana déag d'aois san am .
Amharclann Ghaoth Dobhair , Amharclann an Grianán
Páirc Hampden , Páirc na Banríghinn , Páirc Kelvingrove , Páirc Dúthcha Pollok , Páirc Phosail & Taigh a ' Pháirc
Caoimhín Ó Cáinte
Coláiste an Droichid Nua
Medellín , An Cholóim .
Imríonn sé faoi láthair le Middlesbrough .
Tá sí suite i ndeisceart Honshu .
athsheoladh Nioclás II na Rúise
Frank McCourt ( 1930-2009 ) , úr-scéalaí
' '' 44 '' ' – An Ríocht Aontaithe
athsheoladh Real Madrid Club de Fútbol
Leag William James béim ar leanúnachas an chomhfheasa ( sreabhadh an smaoinimh ) .
Cuireadh go Londain é , marar chaith sé cúpla bliain sa phríosún i Túr Londan .
Fuair sé bás i Baile Átha Cliath .
Parthalán Ó hEachthairn , polaiteoir
athsheoladh The X Factor
John F. Kennedy
Gach amhrán cumtha ag Lennon / McCartney , ach amháin iad siúd le nótaí .
Mikel John Obi
' '' An Pholainéis '' '
D'obraigh sé le Albain roimhe sin .
Loch A ' Bharain , Loch A ' Chaorainn
Catherine Murphy , Róisín Ní Shoirtéil , Stephen Donnelly
Malden Rushett , Motspur Park
' '' All That You Ca n't Leave Behind '' ' ''
' '' Tá sé suite san Muirthead , in iarthuaisceart Chontae Mhuigh Eo .
L. L. Zamenhof
Faoi láthair imríonn siad sa Primera División de La Liga española de fútbol .
athsheoladh Foireann sacair náisiúnta Phoblacht na hÉireann
Dónal Ó Caoimh
Victoria na Ríochta Aontaithe
California , Chaddesden , Chellaston
Athsheoladh Colm Ó Maonlaí
Reáchtáiltear imeachtaí teanga le Coláiste na nGael freisin .
' '' Tá sé suite i Contae Mhaigh Eo .
Bhí scéal ann go raibh an leabhar beag seo faoi deara an ratha a bhí ar ghairm mhíleata Napoléon Bonaparte , ach níl aon fhianaise cheart ann ina leith seo .
athsheoladh Richard Boyle , 3ú hIarla Burlington
Bun-sgoil Taobh na Páirce
RTÉ a hAon ( 1961- )
Tar éis sin , sheol an grúpa amach Morning View agus A Crow Left of the Murder .
Máirtín Ó Cadhain
Tháinig a mhac , Anraí III , i gcomharbas air .
Shipley , Silsden , Sowerby Bridge
athsheoladh Gníomhaireacht Chomhshaoil Eorpach
athsheoladh Destiny 's Child
Ospidéal an Mater Misercordiae
Tá sé ina bhall de Fianna Fáil .
Tháinig díorma acu isteach ar Pháirc an Chrócaigh le linn báire agus loisc siad meaisínghunnaí ar an lucht féachana , ionas gur maraíodh ceathrar déag .
' '' Tá sé suite in Iorras , in iarthuaisceart Chontae Mhuigh Eo .
' '' Richard Boyd Barrett '' '
' '' Tá sé suite san Iorras , in iarthuaisceart Chontae Mhuigh Eo .
Tá oifigí Raidió na Gaeltachta suite san iardheisceart , agus tá séipéal cóngarach go leor .
Jiangxi ( 江西 )
Old Man of Coniston
Tá cónaí air i Béal an Átha .
Johann Wolfgang von Goethe
Gach amhrán le Lennon / McCartney , ach amháin iad le nótaí .
Is é Máirtín Ó Cadhain ( 1906-1970 ) , áfach , an scríbhneoir is clúití acu .
City of Manchester Stadium
Sandy , Shefford , Stotfold
An Bheilg ( 75 )
Seán Ó Loingsigh , Taoiseach
An Chorr Dhubh , An Aill , An tSeanbhaile ,
athsheoladh Hull City Association Football Club
athsheoladh Éamon de Buitléar
athsheoladh Società Sportiva Lazio
athsheoladh Mícheál Ó Máirtín
Don chéad uair tugadh féinrialú do réigiúin na Spáinne .
Tháinig a mhac Liam II i gcomharbas air .
Cheltenham , Chipping Campden , Chipping Sodbury , Cinderford , Cirencester , Coleford
athsheoladh Adolf von Bäyer
Ruail Bheathaig , Rosbrog
athsheoladh Bungaree , Victoria
athsheoladh Stailc agus Frithdhúnadh 1913 ( Baile Átha Cliath )
Baintear úsáid éigin as an bhFraincis sa Chambóid agus i Laos .
Páirc Uí Mhórdha , Príosún Phort Laoise , Pobalscoil Maighean Rátha
An Chóiré Theas
Quintus Caecilius Metellus Pius
''Aslan '' - Liam Neeson
Chraol sé ar Fox .
Murcia , An Spáinn .
- Mícheál D. Ó hUiginn
Is ball de Fine Gael é .
''Severus Snape '' - Alan Rickman
An Socach , An Stúc , Sídh Chailleann , Sgairneach Mhór , Na Sidhbheanntan , Stúc a ' Chroin , Srath Éireann
The Beach Boys
Balla , Baile an Daighin
' '' ' '' An Chóiré Theas '' '
' '' Cúige Mumhan '' '
Páirc an Chrócaigh , Baile Átha Cliath
Tá Liam Ó Flaithearta orthu siúd a scríobh sa dá theanga .
Tá sí suite i lár Honshu .
athsheoladh Foireann sacair náisiúnta na hIodáile
Belgravia , Brompton , Brompton Thiar
Níor ghlac sé páirt san Olltoghchán 2016 .
1 - Artur Boruc
An Gairdín Cuimhneacháin , Gairdíní Náisiúnta Cuimhneacháin Cogaidh na hÉireann
' '' Tá sé suite in Iorras , in iarthuaisceart Chontae Mhuigh Eo .
An Ríocht Aontaithe ( 3 )
athsheoladh Dmitri Anatolyevich Medvedev
Blackburn Rovers Football Club
athsheoladh Drogheda United Football Club
athsheoladh Pobalscoil Bhaile an Easpaig
Homer , a bhean chéile Marge , agus a gclann Bart , Lisa agus Maggie .
Is í Marseille príomhcathair an réigiún .
An Iorua ( 57 )
Chuaigh sé ag labhairt le Giovanni Falcone agus é ag roinnt a chuid eolais ar chúrsaí Mhafia leis an mbreitheamh seo .
An Chóiré Theas ( 1 )
Imríonn sé faoi láthair do KV Mechelen .
Bhíodh sí ina bhall de Fianna Fáil .
Páirc an Chrócaigh , Baile Átha Cliath
Uachdar Niad , Ulapul , Urrath
An Roinn Airgeadais agus Pearsanra
Tá sé ina bhall de Fine Gael .
Tugann seo le fios go bhfuil an t-eolas seo ag an Vatacáin ach go bhfuil sé a cheilt , chun go mbeidh sí ábalta fanacht i réim .
Tadhg Óg Ó Cianáin
Flodaigh , Flodaigh Mór , Fraoch-eilean
Rinne sé cuid mhaith freascónna i Firenze i gcomhar le Masolino .
) , Platón ( 429-347 R.Ch .
De réir daonáireamh S.A.M .
I gcúrsaí cothaithe baintear úsáid as calraiméadair chun an méid calraí i mbia éigin a thomhas , agus an teas atá astaithe ag duine a thomhas , coibhéiseach le hídiú fuinnimh an duine .
TV3 ( Éire )
An Bhanna ( Contae Chill Mhantáin )
Arthur Wellesley , an chéad Diúc Wellington
Pádraig Ó Rathaille ( Paddy Reilly )
Rinn Verde ( 3 )
Comhairle nan Eilean Siar
' '' An Ghearmáin '' '
Chum Cathal Ó Searcaigh an dán .
Páirc an Chrócaigh , Baile Átha Cliath
Port of Liverpool Building
Battle of Britain Bunker
Whetstone , Woodside Park
athsheoladh Conrad Hal Waddington
Tá sé suite ar an mbóthar go Gleann Dá Loch i Contae Chill Mhantáin .
Triomaítear iad de ghnáth faoin nGrian .
Ainmnithe as Leonhard Euler is Joseph-Louis Lagrange , agus tugtar ''cothromóidí Lagrange '' orthu freisin .
' '' Cúige Chonnacht '' '
Réigiún Eacnamaíochta na Sibéire Thiar
Ollscoil na hÉireann , Gaillimh
Mhol Benjamin Franklin an beart ar dtús .
Is é Béal an Mhuirthead an príomhbhaile sa gceantar .
Liza ( géineas )
' '' An Spáinn '' '
athsheoladh Gaillimh Thiar ( Dáilcheantar )
Tá sé ina bhall de Fianna Fáil .
Zú Bhaile Átha Cliath
Tháinig a chol ceathrair Anraí II i gcomharbas air .
The Voice of Ireland
Níl sé ag glacadh páirt san Olltoghchán 2016 .
athsheoladh The X Factor ( RA sraith 8 )
Fuair sé bás i Cathair Nua-Eabhrac .
Park Village , Pendeford , Penn Fields , Penn , Perton , Portobello
athsheoladh West Ham United Football Club
Rowlatts Hill , Rushey Mead
Tar éis dó tamall de bhlianta a chaitheamh i bpost múinteoireachta i Contae Luimnigh d'aistrigh sé go Baile Átha Cliath .
' '' Atlanta Hawks '' '
athsheoladh Seoirse III na Breataine Móire agus na hÉireann
athsheoladh Seoirse III na Breataine Móire agus na hÉireann
Páirc Dhroichead Átha ,
Roazhon ( ''Rennes '' )
Páirtí Sóisialta Daonlathach na Gearmáine
**Ballet Teacher ( Susan Sarandon )
athsheoladh Donnchadh Mac Fhionnlaoich
Dubhghlas de hÍde
athsheoladh Pádraig Ua Duinnín
=== Alagoas ( AL ) ===
athsheoladh Laval , Québec
**Verity ( Tress MacNeille )
Fland Mac Máel Sechnaill 877-914 .
athsheoladh Institiúid an Teampaill
Ba bhreitheamh í ar The X Factor '' agus The Voice UK '' .
Brian Óg Ó Luineacháin , polaiteoir
Baile an Chaistil , Baile Monaidh , Baile na Mainistreach , Baile Meánach , Bealach Cláir , Béal Feirste , Baile Raghnail
Tá sé suite i Tír na mBascach .
*Príomhoifigí CCTV , Béising , 2004–2009
Tugadh cuireadh go Londain dó agus d'fhill é go hÉirinn mar aimiréal ar chathair nua Dhoire Cholm Cille .
athsheoladh Patrick Joseph Hartigan
Béal Átha Seanaidh ( don N15 )
Marble Hill House , St Mary 's University
Ansin cuireadh iachall air seirbhís mhíleata a dhéanamh ar feadh cúig bliana ina shaighdiúir singil agus ina leifteanant sa Reisimint Shibéarach sa Chasacstáin .
Páirc an Chrócaigh , Baile Átha Cliath
Tháinig sé chun saoil i Halacarnasas ( inniu , Bodrum sa Tuirc ) .
John Millington Synge
Rinne sé staidéar le Jacques-Louis David .
Droichead Samuel Beckett , Droichead Seán Heuston , Droichead Sheáin Uí Chathasaigh
Párlamaid na h-Alba , Páirc Dhún Éideann
D’fhág sé an Ord , áfach , agus chuaigh sna Proinsiasaigh .
Bhí bunú an chlub a phoibliú dhá lá ina dhiaidh sin trín nuachtán , La Gazzetta dello Sport '' .
athsheoladh The X Factor ( RA sraith 11 )
athsheoladh Edward Plunkett , 18ú Barún Dhún Samhnaí
' '' Tá sé suite in Iorras , in iarthuaisceart Chontae Mhuigh Eo .
Joe Steve Ó Neachtain
Ollscoil Humboldt Bheirlín
Is scéal é seo atá suite i nGaeltacht Cheanada agus é bunaithe ar ghearrscéal le Pádraig Ó Siadhail dar teideal ‘Meisce Bhreallántachta’ .
Ceol traidisiúnta na hÉireann
Cuireadh i Béal Átha na Muice é .
athsheoladh John Deasy ( Fine Gael )
Gleann Ráthais & Baile nan Dealgan
Eoghan Rua Ó Súilleabháin
Abhainn Nid , Na hArdtailte Theas
Ollamh in Ollscoil Cambridge .
Coláiste Muire Cnoc Beag , Coláiste Phádraig Ceatharlach , Comhairle Chontae Cheatharlach
athsheoladh The X Factor ( RA sraith 10 )
Eachroim , Contae na Gaillimhe
Ba é Hernán Cortés an chéad mhéara .
athsheoladh Marshall Warren Nirenberg
Droichead an Nascbhóthair Thoir , Droichead an Nascbhóthair Thiar
Eamonn Coghlan , lúthchleasaí
Pedro Calderón de la Barca
Institiúid Teicneolaíochta Bhaile Átha Luain
Is scoil do bhuachaillí agus cailíní araon é. Tá an scoil ainmnithe i ndiaidh an Bhráthair Éamann Iognáid Rís .
Ceatharlach ( don N80 )
Tá sí ina ball de Fine Gael .
athsheoladh Manchester United Football Club
Scríobh sé colún seachtainiúil i The Irish Times '' freisin .
athsheoladh Edward Lawrie Tatum
Ceapadh mar aire é i rialtas Ghearóid Mac Gearailt agus i rialtas Shéain de Briotún .
Fisic - Jean Baptiste Perrin
Eilean Meadhonach , Eilean Mór , Na h-Eileanan Crólainneach , Na h-Eileanan Ascrib , Eilean Bán , Eilean Fladda , Eilean Mór , Eilean Tigh , Eilean Heárrlois , Eilean Stafainn
Iúr Cinn Trá
athsheoladh An Cabhán–Muineachán ( Dáilcheantar )
John B. Keane ( 1928-2002 )
athsheoladh Naomh Aodhán Lindisfarne
Tá Cumann Lúthchleas Gael lonnaithe i Páirc an Chrócaigh , staid mór 82,500 suíochán gar do Dhroim Conrach .
Imríonn sé faoi láthair le Sporting CP .
Tugtar laochscéalta orthu agus tá a bhformhór suite i Cúige Uladh .
Chafford Hundred , Chalkwell , Chelmsford , Chigwell , Chipping Ongar , Clacton-on-Sea , Coggeshall , Colchester , Corringham
Gleann Fairg , Gar an Tulaich
Scríobh Nuala Ní Dhomhnaill an dán seo , ' '' An Obair '' ' .
Is é Ryazan an phríomhchathair .
Páirc Náiseanta a ' Mhonaidh Ruaidh
Na Ceithre Cúirteanna
Cuan Bhaile Átha Cliath
Níl sé ag glacadh páirt san Olltoghchán 2016 .
Keegan Michael Key
' '' Keith Hanley '' '
Hans Christian Ørsted
Throid sé cliathánach le Arm Cathartha na hÉireann , faoi cheannas Shéamuis Uí Chonghaile .
Cumann Lúthchleas Gael
Fisic - Max Karl Ernst Ludwig Planck
''An tOllamh McGonagall '' - Maggie Smith
I measc bunaitheoirí Acadamh Ríoga na hÉireann .
Tá sí suite i dtuaisceart Honshu .
Ba iad Martin Luther agus Gregor Mendel an dá bhall ba chailiúla den ord .
Is láithreoir The Voice of Ireland '' í .
athsheoladh Seán A Mac Coisdealbha
Tulsa ( Oklahoma )
Twickenham Stoop , Staidiam Twickenham
Is é an ceannaire a chaith an tréimhse is faide sa phost seo , ach amháin Iósaf Stailín .
Máel Sechnaill mac Domnaill
Mrs. Brown 's Boys ''
Fujian ( 福建 )
athsheoladh Seán Pilib Ó Maolchalann
ATHSHEOLADH Gabriel García de la Torre
Acadamh Ríoga na hÉireann
1. Fußballclub Union Berlin
D. S. Ó Ciara
Hermione Granger '' - Emma Watson
Ainmnithe as Georg Ohm .
Pinocchio ( carachtar )
Limistéar an euro
Cholly an Chalicothere - Alan Tudyk
' '' Joe McElderry '' '
athsheoladh Ollscoil na nDaoine
' '' Maureen O'Sullivan '' '
Bedfont , Brentford , Brentford End
athsheoladh Comhghuaillíocht an Phobail roimh Bhrabús
Beverley Minster , Bridlington Priory
Paul McCartney ( SA / Ceanasa )
Is iad Ron Weasley agus Hermione Granger an bheirt chairde is fearr atá aige .
Séamas Ó Raghaill
' '' Tá sé suite in Iorras , in iarthuaisceart Chontae Mhuigh Eo .
Cheannaigh sé ceann nua , cóip Les Paul saor .
Lake District , Loughrigg Fell , Liagchiorcal Castlerigg
Ceimic - Peter Agre , Roderick MacKinnon
Ba cheannaithe iad , is dócha , ón Normainn .
Destiny 's Child
Mrs. Brown 's Boys ''
An Clochán Leathan ,
Máire Mhic Róibín
' '' Kian Egan '' '
Cárradal , Claonaig , An Chluaidh , Ceann mu Dheas , Caolas Chluaidh
An Baile Gaelach
Tá sé suite i Páirc an Fhionnuisce i Baile Átha Cliath .
Gleann Arma Íochtarach , Gleann Arma Uachtarach
Clandon Park , Colley Hill
athsheoladh Nioclás II na Rúise
Arm na Stát Aontaithe
ATHSHEOLADH Mícheál Mac Dubhghaill
Ba scríbhneoir Fionlannach é ' '' Mattias Salamnius '' ' ( 1650-1691 ) .
Scríobh Christiaan Huygens an ''Systema Saturnium '' .
athsheoladh Ivan IV Vasilyevich
Is in Ollscoil na hÉireann , Corcaigh atá an bhunscríbhinn anois .
An Bheilís ( 130,000 )
League of Ireland
athsheoladh Roibeard I , Rí na nAlbanach
' '' An Phortaingéil '' '
Caisleán Bhaile Átha Cliath
Tá sí ina ball de Fine Gael .
Dalais , Diopal , Druim Iubhair , Dubhais , Díg , Dalachaidh Uarach , Deasgard
Hileantan an Ear , Hileantan an Iar
Liosta othar sonrach Ebola
Mícheál Ó Coileáin
athsheoladh An tSeirbia agus Montainéagró
Muircheartach Mac Lochlainn
Andorra ( 40,000 )
Colin Farrell - ''Ray ''
Morgan Freeman - `` Féin ''
Is cuid Ollscoil Cambridge é .
athsheoladh An 31ú Dáil
athsheoladh Gaelic Players Association
Stiúraigh Mel Gibson an scannán agus bhí sé féin sa phríomhpháirt aisteoireachta .
Dúchasach do Mheiriceá theas .
Tá sé ina bhall de Fine Gael .
Ionad siopadóireachta Cearnóg Eldon
Ceapadh é mar ghinearál ar fhórsaí an Chomhcheangail i Cúige Mumhan .
athsheoladh Corcaigh Thuaidh-Lár ( Dáilcheantar )
Tá an chathair suite i Derbyshire i Sasana .
Coláiste Ráithín , Coláiste Chroabh Abhann , Coláiste na Toirbhirte , Comhairle Contae Chill Mhantáin , Cumann Sléibhteoireachta na hÉireann
Fear Flatha Ó Gnímh
Tá sé ina bhall de Sinn Féin .
Is as Contae Luimnigh é .
Ba Máire I Shasana agus Eilís I Shasana iad a hiníonacha .
Bunaíodh Coláiste Liam agus Mháire
athsheoladh Seán Ó Cadhain ( polaiteoir )
Beannchar , Contae Mhaigh Eo
Is minic a cuireadh i gcomparáid le Oskar Schindler é .
Garraithe Náisiúnta na Lus in Éirinn
Eoghan Rua Ó Néill
== Taispeántas sa Premier League ==
Chuaigh sé chuig Coláiste na hOllscoile Corcaigh .
Tá sé ina bhall de Fianna Fáil .
Caisleán Eabhrac , Caisleán Allerton
As Contae Chiarraí dó .
Tá sé suite sa Bhaváir , agus tá sé 2,962 méadar ar airde .
Chraol sé ar Fox .
Tá sé suite lastuaidh den Eilean Sgitheanach .
Pádraig Ó Domhnaill , ball don Invincibles
Fisic - James Chadwick
Cúige Orenburg , An Rúis .
Portishead , Petherton Theas
Scríobh Pádraig Mac Piarais véarsaí breise don amhrán .
Úsáidtear an samhaltán le caoinchead Ard-Mhúsaem na hÉireann .
Tá cáil air toisc gur éirigh leis greim a choinneáil ar an gceantar sin beag beann ar mhóriarrachtaí Shasana é a chur dá sheilbh .
athsheoladh Músaem agus Gailearaí Ealaíne Derby
D. S. Ó Ciara
Fisic - Frits Zernike
Brian Mac Giolla Meidhre , 55 , file
athsheoladh Síomón Ó Cómhanaigh
Is minic a chuirtear i gcomparáid le saothar Franz Kafka iad .
Bad nan Sgoth , Bad an Eóin , Baile Phúir , Baile Mheadhain , Beannchar Dómhnaig , Baile Shealbhaigh , Am Baile Beag , Braois , Baile Chaisteil
An t-Seann Chathair , An t-Srón Reamhar
Caisleán Southsea , Caisleán Odiham
Is ball Fhianna Fáíl é .
Liam Tomás Mac Cosgair
Éire ( 62 )
' '' Leon Jackson '' '
'' Hämeenlinna '' '
Pink]] le Lily Allen )
' '' An Ghearmáin '' '
' '' Navarra '' '
Imríonn sé faoi láthair le hArsenal , i Sasana .
Éadbhard III Shasana
Glasbaidh , Glaschu Úr
Is duine aerach é agus ba é féin agus Dominic Hannigan an chéad bheirt a toghadh go Dáil Éireann a bhí aerach go hoscailte .
Imríonn sé faoi láthair le S.S.C. Napoli .
border]] ' '' Michael Darragh MacAuley '' '
athsheoladh Shamrock Rovers Football Club
Sna príomhpháirteanna tá Julian Barratt agus Noel Fielding , a scríobhann é freisin .
athsheoladh 1. Fußballclub Union Berlin
Teletubbies '' ( páistí )
Tá sé ina ollamh in Ollscoil Princeton agus scríobhann sé sa nuachtán The New York Times '' freisin .
Tá an chathair Halifax suite ann .
''Elrond '' , ealbh - Hugo Weaving
athsheoladh Séamas VI , Albain agus Séamas I , Sasana agus Éire
Ba é Eoin Mac Néill a bhí i gceannas ar an gcoiste .
Hunan ( 湖南 )
' '' Eoghan Murphy '' '
John Boyd Dunlop , Ceapadóir is tionsclóir
Fear Flatha Ó Gnímh
Christy Moore – ceoltóir
Cathair na Marbh , Caireo Choptach , Cearnóg Tahrir , Obour City , Nasr City
athsheoladh Fatimah bint Muhammad
Inniu , áfach , glactar leis gurb í an popamhránaí Madonna an duine is cáiliúla a bhíonn ag plé leis an gCabála .
' '' Zooropa '' ' ''
Ainmnithe as Anders Celsius .
Tá sí ina ball de Fine Gael .
Risteard Mac An Earraigh ( 1982–1997 )
' '' Tá sé suite san Muirthead , in iarthuaisceart Chontae Mhuigh Eo .
Canning Town , Custom House
''Gandalf '' - Ian McKellen
athsheoladh Jean Baptiste Lamarck
Bhí sé cairdiúil le George Orwell ansin .
athsheoladh John von Neumann
Ceantar Féinrialaitheach na Neinéitseach
Páirc an Chrócaigh , Baile Átha Cliath
An Iorua ( 61 )
Ainmnithe as Ernst Mach , a scrúdaigh luasanna den mhéid seo a chéaduair .
athsheoladh N2 ( Éire )
Chomhoibrigh sé go luath le Niels Bohr .
An Eachléim , An Éill
49 - Scott Cuthbert
Siorrachd Dhún Bhreatainn an Ear
Athsheoladh Craobh Sinsear Peile na hÉireann 2006
Peadar Toner Mac Fhionnlaoich
Ospidéal Ollscoile Ban agus Naíonán an Chúim , Ospidéal Ríochta Chill Mhaighneann , Ospidéal Thamhlachta , Ospidéal Ollscoile Naomh Uinseann
D'fhoilsigh Cló Iar-Chonnacht cnuasach dá chuid scéalta ( ''Teachtaireacht '' ) sa bhliain 2015 .
athsheoladh Seán Ó hEochaidh
Príomh-Oifig Staidrimh na hÉireann
Deirtear go raibh Cathal Brugha ag tacú leis an bplean seo fosta .
athsheoladh Ipswich Town Football Club
Máire Ní Áirne ( 1993–2006 )
Colm Mac Con Iomaire - Ball The Frames
An Mhuir Aeigéach
' '' Tá sé suite i Clann Mhuiris , i Contae Mhaigh Eo .
D. S. Ó Ciara
An Ghabúin ( 2 )
Port Láirge ( don N24 agus N25 )
Toirdhealbhach Ua Conchobhair , 1119-1156 .
Páirc Uí Chíosóig , Inis , Poll na mBrón
'' Ikaalinen '' '
Críochnaítear an rás ar an Champs-Élysées .
München - Allianz Arena
As Cluain Dolcáin i Baile Átha Cliath dó .
Eaglais Cheartchreidmheach na Fionlainne
Maida Vale , Mayfair , Marylebone , Millbank
Olltoghchán na hÉireann , 2016
Comhghuaillíocht an Phobail roimh Bhrabús
Tá Caireo cois Níl .
athsheoladh Páirtí na nOibrithe
An Airméin ( 1299-1918 ) ;
Ceol traidisiúnta na hÉireann
Sevenoaks , Sheerness , Sittingbourne , Snodland , Strood , Swanley
Máire Mhac an tSaoi
D'oibrigh sé le roinnt de dhornálaithe móra eile a linne chomh maith , Sugar Ray Robinson ina measc .
athsheoladh Teaghlach na bPlantaigíneach
''An tOllamh McGonagall '' - Maggie Smith
Jagadguru Kripaluji Maharaj
Dervla Murphy , scribhneoir
Ealaghol , Ealaiseadar , Eilean Iarmain , Eighre
Mainistir na Búille , Meánscoil na mBráithre Críostí
An Tulachán , Contae Liatroma
) Antoine Ó Raifteiri .
Bhí Seosamh Ó Duibhginn mar Chathaoirleach ar feadh tamaill .
Ainmnithe as Michael Faraday .
D'aimsigh Samuel de Champlain an suíomh cúpla bliain roimhe sin .
Eagraíonn Cumann Lúthchleas Gael an chraobh seo gach bliain .
Cumann Rugbaí na hÉireann
Tuaisceart na Réine agus an Viostfáil
Beyoncé '' ( 2013 )
BBC News ( 1997- )
Walton-on-Thames , Weybridge , Whyteleafe , Woking
Seán Ó Mathúna , polaiteoir
Veselin Topalov , 2005–2006 , An Bhulgáir
athsheoladh The X Factor ( RA sraith 6 )
Cúba ( 91 )
Port a ' Mhuilinn , Port na Crois
Bremen ( cathairstát le dhá chathair )
Seanainm ar an ápa-dhuine iontaisithe , ''Homo erectus '' , a chuimsíonn Duine Iáva is Duine Phéicing .
Í Cholm Cille
Bhuaigh an ''Shels '' Sraith na hÉireann sa bhliain seo chaite ach an bhliain seo tá sé ag imirt sa Chéad Roinn .
An Veinéis , An Iodáil .
Tógadh sa chathair sin é agus bhuail sé le Bill Gates ann .
Sean-nós ( amhránaíocht )
Tá cónaí ar timpeall 270,000 duine sa chuid Ghréagach den chathair .
Ina choinne bhí an tUachtarán , George W. Bush , rogha an Pháirtí Phoblachtaigh , a raibh a dhara théarma á iarraidh aige .
Friedrich Engels - smaointeoir
Déantar tagairt do thaiséadach a tógadh go Constantinople sa bhliain 944 , ach ainneoin seo níl taifead iomlán ar a bhain dó ar feadh tréimhse fhada tar éis sin .
' '' Tá sé suite i Muraisc , i Contae Mhaigh Eo .
Pálás Buckingham , Pall Mall
athsheoladh An Ginearál Iain Cope
Bartholemew `` Bart '' Simpson
Gorton , Great Heaton
Tá sí suite i lár Honshu .
** Stokes , Whitley .
Blakesley Hall , Birmingham Oratory , Birmingham Mosc Láir , Bull Ring
Is é Coláiste Benildus an scoil is mó sa cheantar .
Dagenham , Dagenham Dock
Tháinig a iníon , Eilís II i gcomharbacht air .
Paul ( Óg ) Connaughton
Téann an líne DART tríd an gceantar .
athsheoladh The X Factor ( RA sraith 6 )
Bhíodh sé ina bhall den ghrúpa ABBA .
Haifa , Iosrael .
Shelton , Sideway , Smallthorne , Sneyd Green
`` Maestro '' - Hans Zimmer
' '' An Iodáil '' '
Tá sí ina ball den The Saturdays .
Seán Ó Conghaile
Seán Ó Néill
Cuid den Eoraip is ea í fós , cé go bhfuil an tír scoite amach ón mhór-roinn .
Jacob Grimm ( 1785-1863 )
Córas Iompair Éireann
athsheoladh The X Factor ( RA sraith 5 )
Páirc an Chrócaigh , Baile Átha Cliath
An tSúdáin ( 1553-1914 ) ;
Saothraíodh cuid mhaith pór in Albain .
D'fhoilsigh sé cuid mhaith de scéalta Mháirtín Uí Chadhain .
Ansin bhog a thuistí go Los Angeles , California .
Is iar-láithreoir The X Factor '' í .
Fuair sé bás i Moscó .
Ball den Pháirtí Poblachtach atá ann .
Ba é Wilhelm von Humboldt a dheartháir níos sine .
Ráth Maonais ( ''Rathmines '' )
Inis Ceithleann , An tIompú Deiseal
`` Every Man 's Dream ''
Renée Zellweger mar ''Angie ''
' '' Jamelia '' '
The X Factor ( RA ) ''
Beidh Louis Walsh mar breitheamh ar an gclár .
' '' An Bhrasaíl '' '
athsheoladh Baltimore , Maryland
Ospidéal Ollscoile Naomh Uinseann
Is iar-choilíneacht Frainceach í .
Is máthair Marge í .
James Patrick Stuart
ITV ( 1955- )
Tháinig an Captaen as peann an údair Cathal Ó Sándair .
Taigh a ' Chladaich , Tairbeart Loch Laomainn , Taigh an Uillt , Taigh a ' Bhealaich , Taigh na Bruaich , Tórr an Tuirc , Tollard
Coca-Cola Park ( Johannesburg )
Ros Cré , Ráth Cabáin , An Ros Mór
Tá sé ina bhall de Fine Gael .
An Ostair ( 2 )
An Coláiste Ollscoile , Baile Átha Cliath
Tá sé ar BBC One .
An Úisbéiceastáin ( 46 )
An Mhórsceir Bhacainneach
Bhí Gearóid Mac Ádhaimh , cathaoirleach Shinn Féin , i láthair le hóráid a thabhairt .
**Tammy ( Lily Tomlin )
De Facto ( banna )
An Muileann gCearr ( don N4 )
